<?xml version="1.0" encoding="UTF-8" standalone="no" ?>
<COLLADA xmlns="http://www.collada.org/2005/11/COLLADASchema" version="1.4.1">
    <asset>
        <contributor>
            <authoring_tool>SketchUp 14.0.4900</authoring_tool>
        </contributor>
        <created>2014-10-15T04:44:14Z</created>
        <modified>2014-10-15T04:44:14Z</modified>
        <unit meter="0.0254" name="inch" />
        <up_axis>Z_UP</up_axis>
    </asset>
    <library_visual_scenes>
        <visual_scene id="ID1">
            <node name="SketchUp">
                <node id="ID2" name="instance_0">
                    <matrix>1 0 0 -74.34339 0 1 0 -9.659289 0 0 19.5 -1 0 0 0 1</matrix>
                    <instance_node url="#ID3" />
                </node>
            </node>
        </visual_scene>
    </library_visual_scenes>
    <library_nodes>
        <node id="ID3" name="PALOMA153">
            <instance_geometry url="#ID4">
                <bind_material>
                    <technique_common>
                        <instance_material symbol="Material2" target="#ID6">
                            <bind_vertex_input semantic="UVSET0" input_semantic="TEXCOORD" input_set="0" />
                        </instance_material>
                    </technique_common>
                </bind_material>
            </instance_geometry>
            <instance_geometry url="#ID12">
                <bind_material>
                    <technique_common>
                        <instance_material symbol="Material2" target="#ID6">
                            <bind_vertex_input semantic="UVSET0" input_semantic="TEXCOORD" input_set="0" />
                        </instance_material>
                    </technique_common>
                </bind_material>
            </instance_geometry>
            <instance_geometry url="#ID18">
                <bind_material>
                    <technique_common>
                        <instance_material symbol="Material2" target="#ID6">
                            <bind_vertex_input semantic="UVSET0" input_semantic="TEXCOORD" input_set="0" />
                        </instance_material>
                    </technique_common>
                </bind_material>
            </instance_geometry>
            <instance_geometry url="#ID24">
                <bind_material>
                    <technique_common>
                        <instance_material symbol="Material2" target="#ID6">
                            <bind_vertex_input semantic="UVSET0" input_semantic="TEXCOORD" input_set="0" />
                        </instance_material>
                    </technique_common>
                </bind_material>
            </instance_geometry>
            <instance_geometry url="#ID30">
                <bind_material>
                    <technique_common>
                        <instance_material symbol="Material2" target="#ID6">
                            <bind_vertex_input semantic="UVSET0" input_semantic="TEXCOORD" input_set="0" />
                        </instance_material>
                    </technique_common>
                </bind_material>
            </instance_geometry>
            <instance_geometry url="#ID36">
                <bind_material>
                    <technique_common>
                        <instance_material symbol="Material2" target="#ID6">
                            <bind_vertex_input semantic="UVSET0" input_semantic="TEXCOORD" input_set="0" />
                        </instance_material>
                    </technique_common>
                </bind_material>
            </instance_geometry>
            <instance_geometry url="#ID42">
                <bind_material>
                    <technique_common>
                        <instance_material symbol="Material2" target="#ID6">
                            <bind_vertex_input semantic="UVSET0" input_semantic="TEXCOORD" input_set="0" />
                        </instance_material>
                    </technique_common>
                </bind_material>
            </instance_geometry>
            <instance_geometry url="#ID48">
                <bind_material>
                    <technique_common>
                        <instance_material symbol="Material2" target="#ID6">
                            <bind_vertex_input semantic="UVSET0" input_semantic="TEXCOORD" input_set="0" />
                        </instance_material>
                    </technique_common>
                </bind_material>
            </instance_geometry>
            <instance_geometry url="#ID54">
                <bind_material>
                    <technique_common>
                        <instance_material symbol="Material2" target="#ID6">
                            <bind_vertex_input semantic="UVSET0" input_semantic="TEXCOORD" input_set="0" />
                        </instance_material>
                    </technique_common>
                </bind_material>
            </instance_geometry>
            <instance_geometry url="#ID60">
                <bind_material>
                    <technique_common>
                        <instance_material symbol="Material2" target="#ID6">
                            <bind_vertex_input semantic="UVSET0" input_semantic="TEXCOORD" input_set="0" />
                        </instance_material>
                    </technique_common>
                </bind_material>
            </instance_geometry>
            <instance_geometry url="#ID66">
                <bind_material>
                    <technique_common>
                        <instance_material symbol="Material2" target="#ID6">
                            <bind_vertex_input semantic="UVSET0" input_semantic="TEXCOORD" input_set="0" />
                        </instance_material>
                    </technique_common>
                </bind_material>
            </instance_geometry>
            <instance_geometry url="#ID72">
                <bind_material>
                    <technique_common>
                        <instance_material symbol="Material2" target="#ID6">
                            <bind_vertex_input semantic="UVSET0" input_semantic="TEXCOORD" input_set="0" />
                        </instance_material>
                    </technique_common>
                </bind_material>
            </instance_geometry>
            <instance_geometry url="#ID78">
                <bind_material>
                    <technique_common>
                        <instance_material symbol="Material2" target="#ID6">
                            <bind_vertex_input semantic="UVSET0" input_semantic="TEXCOORD" input_set="0" />
                        </instance_material>
                    </technique_common>
                </bind_material>
            </instance_geometry>
        </node>
    </library_nodes>
    <library_geometries>
        <geometry id="ID4">
            <mesh>
                <source id="ID7">
                    <float_array id="ID10" count="360">1.898726 19 0 5.670691 15.8397 0 1.898726 0.3185781 0 7.95171 19 0 7.492958 15.8397 0 10.20724 15.71227 0 10.79343 18.92991 0 11.0451 15.42237 0 12.43729 18.71965 0 11.72368 14.88397 0 12.17287 14.13213 0 12.3226 13.20188 0 7.735077 10.53856 0 5.670691 7.365526 0 5.670691 10.53856 0 8.130114 7.365526 0 9.595573 10.61184 0 10.38883 7.432428 0 10.71697 10.83166 0 12.04225 7.633132 0 11.38758 11.20758 0 11.89571 11.74916 0 12.21588 12.42455 0 13.02825 7.96286 0 13.91231 18.05223 0 13.99832 8.518779 0 15.12609 16.89101 0 14.87601 9.313632 0 15.58484 10.36016 0 15.59997 16.13558 0 16.05315 11.66952 0 15.93846 15.27741 0 16.14156 14.3165 0 16.20926 13.25285 0 5.670691 0.3185781 0 1.898726 19 1 1.898726 0.3185781 0 1.898726 0.3185781 1 1.898726 19 0 1.898726 19 1 7.95171 19 0 1.898726 19 0 7.95171 19 1 10.79343 18.92991 0 10.79343 18.92991 1 12.43729 18.71965 0 12.43729 18.71965 1 13.91231 18.05223 0 13.91231 18.05223 1 15.12609 16.89101 0 15.12609 16.89101 1 15.59997 16.13558 1 15.59997 16.13558 0 15.93846 15.27741 1 15.93846 15.27741 0 16.14156 14.3165 1 16.14156 14.3165 0 16.20926 13.25285 1 16.20926 13.25285 0 16.05315 11.66952 1 16.05315 11.66952 0 15.58484 10.36016 1 15.58484 10.36016 0 14.87601 9.313632 1 14.87601 9.313632 0 13.99832 8.518779 0 13.99832 8.518779 1 13.02825 7.96286 0 13.02825 7.96286 1 12.04225 7.633132 0 12.04225 7.633132 1 10.38883 7.432428 0 10.38883 7.432428 1 8.130114 7.365526 0 8.130114 7.365526 1 5.670691 7.365526 0 5.670691 7.365526 1 5.670691 7.365526 0 5.670691 0.3185781 1 5.670691 0.3185781 0 5.670691 7.365526 1 5.670691 0.3185781 1 1.898726 0.3185781 0 5.670691 0.3185781 0 1.898726 0.3185781 1 8.130114 7.365526 1 5.670691 10.53856 1 5.670691 7.365526 1 7.735077 10.53856 1 9.595573 10.61184 1 10.38883 7.432428 1 10.71697 10.83166 1 12.04225 7.633132 1 11.38758 11.20758 1 11.89571 11.74916 1 12.21588 12.42455 1 13.02825 7.96286 1 12.3226 13.20188 1 12.43729 18.71965 1 13.91231 18.05223 1 13.99832 8.518779 1 15.12609 16.89101 1 14.87601 9.313632 1 15.58484 10.36016 1 15.59997 16.13558 1 16.05315 11.66952 1 15.93846 15.27741 1 16.14156 14.3165 1 16.20926 13.25285 1 5.670691 0.3185781 1 1.898726 19 1 1.898726 0.3185781 1 5.670691 15.8397 1 7.95171 19 1 7.492958 15.8397 1 10.20724 15.71227 1 10.79343 18.92991 1 11.0451 15.42237 1 11.72368 14.88397 1 12.17287 14.13213 1</float_array>
                    <technique_common>
                        <accessor count="120" source="#ID10" stride="3">
                            <param name="X" type="float" />
                            <param name="Y" type="float" />
                            <param name="Z" type="float" />
                        </accessor>
                    </technique_common>
                </source>
                <source id="ID8">
                    <float_array id="ID11" count="360">-0 -0 -1 -0 -0 -1 -0 -0 -1 -0 -0 -1 -0 -0 -1 -0 -0 -1 -0 -0 -1 -0 -0 -1 -0 -0 -1 -0 -0 -1 -0 -0 -1 -0 -0 -1 -0 -0 -1 -0 -0 -1 -0 -0 -1 -0 -0 -1 -0 -0 -1 -0 -0 -1 -0 -0 -1 -0 -0 -1 -0 -0 -1 -0 -0 -1 -0 -0 -1 -0 -0 -1 -0 -0 -1 -0 -0 -1 -0 -0 -1 -0 -0 -1 -0 -0 -1 -0 -0 -1 -0 -0 -1 -0 -0 -1 -0 -0 -1 -0 -0 -1 -0 -0 -1 -1 0 0 -1 0 0 -1 0 0 -1 0 0 0 1 0 0.01232903 0.999924 0 0 1 0 0.01232903 0.999924 0 0.07586449 0.9971181 0 0.07586449 0.9971181 0 0.2725736 0.9621349 0 0.2725736 0.9621349 0 0.5597576 0.8286564 0 0.5597576 0.8286564 0 0.7751198 0.6318143 0 0.7751198 0.6318143 0 0.8924829 0.4510812 0 0.8924829 0.4510812 0 0.957672 0.2878617 0 0.957672 0.2878617 0 0.9907764 0.1355071 0 0.9907764 0.1355071 0 0.9998494 -0.01735568 0 0.9998494 -0.01735568 0 0.975705 -0.2190884 0 0.975705 -0.2190884 0 0.8918333 -0.4523641 0 0.8918333 -0.4523641 0 0.7550198 -0.655702 0 0.7550198 -0.655702 0 0.587648 -0.8091167 0 0.587648 -0.8091167 0 0.4091764 -0.9124553 0 0.4091764 -0.9124553 0 0.2199448 -0.9755123 0 0.2199448 -0.9755123 0 0.07513254 -0.9971736 0 0.07513254 -0.9971736 0 0.01480472 -0.9998904 0 0.01480472 -0.9998904 0 0 -1 0 0 -1 0 1 0 -0 1 0 -0 1 0 -0 1 0 -0 0 -1 0 0 -1 0 0 -1 0 0 -1 0 0 0 1 0 0 1 0 0 1 0 0 1 0 0 1 0 0 1 0 0 1 0 0 1 0 0 1 0 0 1 0 0 1 0 0 1 0 0 1 0 0 1 0 0 1 0 0 1 0 0 1 0 0 1 0 0 1 0 0 1 0 0 1 0 0 1 0 0 1 0 0 1 0 0 1 0 0 1 0 0 1 0 0 1 0 0 1 0 0 1 0 0 1 0 0 1 0 0 1 0 0 1 0 0 1</float_array>
                    <technique_common>
                        <accessor count="120" source="#ID11" stride="3">
                            <param name="X" type="float" />
                            <param name="Y" type="float" />
                            <param name="Z" type="float" />
                        </accessor>
                    </technique_common>
                </source>
                <vertices id="ID9">
                    <input semantic="POSITION" source="#ID7" />
                    <input semantic="NORMAL" source="#ID8" />
                </vertices>
                <triangles count="112" material="Material2">
                    <input offset="0" semantic="VERTEX" source="#ID9" />
                    <p>0 1 2 1 0 3 1 3 4 4 3 5 5 3 6 5 6 7 7 6 8 7 8 9 9 8 10 10 8 11 12 13 14 13 12 15 15 12 16 15 16 17 17 16 18 17 18 19 19 18 20 19 20 21 19 21 22 19 22 23 23 22 11 23 11 8 23 8 24 23 24 25 25 24 26 25 26 27 27 26 28 28 26 29 28 29 30 30 29 31 30 31 32 30 32 33 1 34 2 34 1 14 34 14 13 35 36 37 36 35 38 39 40 41 40 39 42 42 43 40 43 42 44 44 45 43 45 44 46 46 47 45 47 46 48 48 49 47 49 48 50 49 51 52 51 49 50 52 53 54 53 52 51 54 55 56 55 54 53 56 57 58 57 56 55 58 59 60 59 58 57 60 61 62 61 60 59 62 63 64 63 62 61 63 65 64 65 63 66 66 67 65 67 66 68 68 69 67 69 68 70 70 71 69 71 70 72 72 73 71 73 72 74 74 75 73 75 74 76 77 78 79 78 77 80 81 82 83 82 81 84 85 86 87 86 85 88 88 85 89 89 85 90 89 90 91 91 90 92 91 92 93 93 92 94 94 92 95 95 92 96 95 96 97 97 96 98 98 96 99 99 96 100 99 100 101 101 100 102 101 102 103 101 103 104 104 103 105 104 105 106 106 105 107 107 105 108 109 110 111 110 109 112 110 112 113 112 109 87 112 87 86 113 112 114 113 114 115 113 115 116 116 115 117 116 117 98 98 117 118 98 118 119 98 119 97</p>
                </triangles>
            </mesh>
        </geometry>
        <geometry id="ID12">
            <mesh>
                <source id="ID13">
                    <float_array id="ID16" count="162">24.68343 19 0 21.40845 0.3185781 0 17.40711 0.3185781 0 22.95037 4.562039 0 24.10999 7.709591 0 26.63313 14.64185 0 28.67203 19 0 29.20724 7.709591 0 36.15225 0.3185781 0 30.41784 4.562039 0 32.04896 0.3185781 0 36.15225 0.3185781 1 32.04896 0.3185781 0 36.15225 0.3185781 0 32.04896 0.3185781 1 30.41784 4.562039 1 32.04896 0.3185781 0 32.04896 0.3185781 1 30.41784 4.562039 0 30.41784 4.562039 1 22.95037 4.562039 0 30.41784 4.562039 0 22.95037 4.562039 1 22.95037 4.562039 0 21.40845 0.3185781 1 21.40845 0.3185781 0 22.95037 4.562039 1 21.40845 0.3185781 1 17.40711 0.3185781 0 21.40845 0.3185781 0 17.40711 0.3185781 1 24.68343 19 1 17.40711 0.3185781 0 17.40711 0.3185781 1 24.68343 19 0 24.68343 19 1 28.67203 19 0 24.68343 19 0 28.67203 19 1 28.67203 19 0 36.15225 0.3185781 1 36.15225 0.3185781 0 28.67203 19 1 30.41784 4.562039 1 24.10999 7.709591 1 22.95037 4.562039 1 29.20724 7.709591 1 21.40845 0.3185781 1 24.68343 19 1 17.40711 0.3185781 1 26.63313 14.64185 1 28.67203 19 1 36.15225 0.3185781 1 32.04896 0.3185781 1</float_array>
                    <technique_common>
                        <accessor count="54" source="#ID16" stride="3">
                            <param name="X" type="float" />
                            <param name="Y" type="float" />
                            <param name="Z" type="float" />
                        </accessor>
                    </technique_common>
                </source>
                <source id="ID14">
                    <float_array id="ID17" count="162">-0 -0 -1 -0 -0 -1 -0 -0 -1 -0 -0 -1 -0 -0 -1 -0 -0 -1 -0 -0 -1 -0 -0 -1 -0 -0 -1 -0 -0 -1 -0 -0 -1 0 -1 0 0 -1 0 0 -1 0 0 -1 0 -0.9334178 -0.3587912 0 -0.9334178 -0.3587912 0 -0.9334178 -0.3587912 0 -0.9334178 -0.3587912 0 0 -1 0 0 -1 0 0 -1 0 0 -1 0 0.9398758 -0.3415164 0 0.9398758 -0.3415164 0 0.9398758 -0.3415164 0 0.9398758 -0.3415164 0 0 -1 0 0 -1 0 0 -1 0 0 -1 0 -0.9318137 0.362937 0 -0.9318137 0.362937 0 -0.9318137 0.362937 0 -0.9318137 0.362937 0 0 1 0 0 1 0 0 1 0 0 1 0 0.9283456 0.3717182 -0 0.9283456 0.3717182 -0 0.9283456 0.3717182 -0 0.9283456 0.3717182 -0 0 0 1 0 0 1 0 0 1 0 0 1 0 0 1 0 0 1 0 0 1 0 0 1 0 0 1 0 0 1 0 0 1</float_array>
                    <technique_common>
                        <accessor count="54" source="#ID17" stride="3">
                            <param name="X" type="float" />
                            <param name="Y" type="float" />
                            <param name="Z" type="float" />
                        </accessor>
                    </technique_common>
                </source>
                <vertices id="ID15">
                    <input semantic="POSITION" source="#ID13" />
                    <input semantic="NORMAL" source="#ID14" />
                </vertices>
                <triangles count="38" material="Material2">
                    <input offset="0" semantic="VERTEX" source="#ID15" />
                    <p>0 1 2 1 0 3 3 0 4 4 0 5 5 0 6 5 6 7 7 6 8 7 8 9 9 8 10 4 9 3 9 4 7 11 12 13 12 11 14 15 16 17 16 15 18 19 20 21 20 19 22 23 24 25 24 23 26 27 28 29 28 27 30 31 32 33 32 31 34 35 36 37 36 35 38 39 40 41 40 39 42 43 44 45 44 43 46 47 48 49 48 47 45 48 45 44 48 44 50 48 50 51 51 50 46 51 46 52 52 46 43 52 43 53</p>
                </triangles>
            </mesh>
        </geometry>
        <geometry id="ID18">
            <mesh>
                <source id="ID19">
                    <float_array id="ID22" count="108">42.02683 18.84708 0 38.25486 0.3185781 0 38.25486 18.84708 0 42.02683 3.46613 0 51.40577 0.3185781 0 51.40577 3.46613 0 38.25486 18.84708 1 38.25486 0.3185781 0 38.25486 0.3185781 1 38.25486 18.84708 0 38.25486 18.84708 1 42.02683 18.84708 0 38.25486 18.84708 0 42.02683 18.84708 1 42.02683 18.84708 0 42.02683 3.46613 1 42.02683 3.46613 0 42.02683 18.84708 1 42.02683 3.46613 1 51.40577 3.46613 0 42.02683 3.46613 0 51.40577 3.46613 1 51.40577 3.46613 0 51.40577 0.3185781 1 51.40577 0.3185781 0 51.40577 3.46613 1 51.40577 0.3185781 1 38.25486 0.3185781 0 51.40577 0.3185781 0 38.25486 0.3185781 1 38.25486 0.3185781 1 42.02683 3.46613 1 38.25486 18.84708 1 51.40577 0.3185781 1 51.40577 3.46613 1 42.02683 18.84708 1</float_array>
                    <technique_common>
                        <accessor count="36" source="#ID22" stride="3">
                            <param name="X" type="float" />
                            <param name="Y" type="float" />
                            <param name="Z" type="float" />
                        </accessor>
                    </technique_common>
                </source>
                <source id="ID20">
                    <float_array id="ID23" count="108">-0 -0 -1 -0 -0 -1 -0 -0 -1 -0 -0 -1 -0 -0 -1 -0 -0 -1 -1 0 0 -1 0 0 -1 0 0 -1 0 0 0 1 0 0 1 0 0 1 0 0 1 0 1 0 -0 1 0 -0 1 0 -0 1 0 -0 0 1 0 0 1 0 0 1 0 0 1 0 1 0 -0 1 0 -0 1 0 -0 1 0 -0 0 -1 0 0 -1 0 0 -1 0 0 -1 0 0 0 1 0 0 1 0 0 1 0 0 1 0 0 1 0 0 1</float_array>
                    <technique_common>
                        <accessor count="36" source="#ID23" stride="3">
                            <param name="X" type="float" />
                            <param name="Y" type="float" />
                            <param name="Z" type="float" />
                        </accessor>
                    </technique_common>
                </source>
                <vertices id="ID21">
                    <input semantic="POSITION" source="#ID19" />
                    <input semantic="NORMAL" source="#ID20" />
                </vertices>
                <triangles count="20" material="Material2">
                    <input offset="0" semantic="VERTEX" source="#ID21" />
                    <p>0 1 2 1 0 3 1 3 4 4 3 5 6 7 8 7 6 9 10 11 12 11 10 13 14 15 16 15 14 17 18 19 20 19 18 21 22 23 24 23 22 25 26 27 28 27 26 29 30 31 32 31 30 33 31 33 34 35 32 31</p>
                </triangles>
            </mesh>
        </geometry>
        <geometry id="ID24">
            <mesh>
                <source id="ID25">
                    <float_array id="ID28" count="576">53.54343 12.16968 0 53.48369 7.434419 0 53.32998 9.544601 0 53.94484 5.563967 0 54.18377 14.33602 0 54.71341 3.933245 0 54.93721 15.68997 0 55.7894 2.542254 0 55.92321 16.89738 0 57.12584 1.430018 0 57.07805 17.88498 0 57.21663 9.672032 0 57.30584 11.18249 0 58.33803 18.57948 0 57.57344 12.48986 0 58.01945 13.59413 0 58.64386 14.49531 0 60.21764 19.1338 0 59.41403 15.19498 0 60.29728 15.69475 0 62.36486 19.31858 0 61.29364 15.99461 0 62.40309 16.09457 0 64.3261 19.15849 0 63.51134 15.99581 0 64.50411 15.69953 0 66.08107 18.67824 0 65.38139 15.20573 0 66.14319 14.51442 0 67.62976 17.87781 0 66.75924 13.6224 0 67.19928 12.52649 0 67.4633 11.22669 0 67.55131 9.723005 0 57.30822 8.181485 0 58.67572 0.6355634 0 57.583 6.882881 0 58.04095 5.77622 0 58.68209 4.861502 0 60.43905 0.1588908 0 59.4642 4.1451 0 60.34507 3.633384 0 61.3247 3.326354 0 62.41583 0 0 62.40309 3.224011 0 63.48028 3.325558 0 64.37031 0.1596873 0 64.45632 3.630198 0 66.11771 0.6387492 0 65.33122 4.137932 0 66.10496 4.848759 0 66.73774 5.76268 0 67.65803 1.437186 0 67.18972 6.879695 0 67.46091 8.199803 0 68.97217 16.75721 0 68.99128 2.554997 0 70.05653 15.35148 0 70.06728 3.955546 0 70.83107 13.69567 0 70.83585 5.602197 0 71.2958 11.78978 0 71.29699 7.494949 0 71.4507 9.633803 0 53.54343 12.16968 1 53.32998 9.544601 0 53.32998 9.544601 1 53.54343 12.16968 0 54.18377 14.33602 1 54.18377 14.33602 0 54.93721 15.68997 1 54.93721 15.68997 0 55.92321 16.89738 1 55.92321 16.89738 0 57.07805 17.88498 0 57.07805 17.88498 1 58.33803 18.57948 0 58.33803 18.57948 1 60.21764 19.1338 0 60.21764 19.1338 1 62.36486 19.31858 0 62.36486 19.31858 1 64.3261 19.15849 0 64.3261 19.15849 1 66.08107 18.67824 0 66.08107 18.67824 1 67.62976 17.87781 0 67.62976 17.87781 1 68.97217 16.75721 0 68.97217 16.75721 1 70.05653 15.35148 1 70.05653 15.35148 0 70.83107 13.69567 1 70.83107 13.69567 0 71.2958 11.78978 1 71.2958 11.78978 0 71.4507 9.633803 1 71.4507 9.633803 0 71.29699 7.494949 1 71.29699 7.494949 0 70.83585 5.602197 1 70.83585 5.602197 0 70.06728 3.955546 1 70.06728 3.955546 0 68.99128 2.554997 1 68.99128 2.554997 0 67.65803 1.437186 0 67.65803 1.437186 1 66.11771 0.6387492 0 66.11771 0.6387492 1 64.37031 0.1596873 0 64.37031 0.1596873 1 62.41583 0 0 62.41583 0 1 60.43905 0.1588908 0 60.43905 0.1588908 1 58.67572 0.6355634 0 58.67572 0.6355634 1 57.12584 1.430018 0 57.12584 1.430018 1 55.7894 2.542254 0 55.7894 2.542254 1 54.71341 3.933245 1 54.71341 3.933245 0 53.94484 5.563967 1 53.94484 5.563967 0 53.48369 7.434419 1 53.48369 7.434419 0 57.12584 1.430018 1 57.30822 8.181485 1 57.21663 9.672032 1 58.67572 0.6355634 1 57.583 6.882881 1 58.04095 5.77622 1 58.68209 4.861502 1 60.43905 0.1588908 1 59.4642 4.1451 1 60.34507 3.633384 1 61.3247 3.326354 1 62.41583 0 1 62.40309 3.224011 1 63.48028 3.325558 1 64.37031 0.1596873 1 64.45632 3.630198 1 66.11771 0.6387492 1 65.33122 4.137932 1 66.10496 4.848759 1 66.73774 5.76268 1 67.65803 1.437186 1 67.18972 6.879695 1 67.46091 8.199803 1 67.55131 9.723005 1 67.62976 17.87781 1 68.97217 16.75721 1 68.99128 2.554997 1 70.05653 15.35148 1 70.06728 3.955546 1 70.83107 13.69567 1 70.83585 5.602197 1 71.2958 11.78978 1 71.29699 7.494949 1 71.4507 9.633803 1 53.48369 7.434419 1 53.54343 12.16968 1 53.32998 9.544601 1 53.94484 5.563967 1 54.18377 14.33602 1 54.71341 3.933245 1 54.93721 15.68997 1 55.7894 2.542254 1 55.92321 16.89738 1 57.07805 17.88498 1 57.30584 11.18249 1 58.33803 18.57948 1 57.57344 12.48986 1 58.01945 13.59413 1 58.64386 14.49531 1 60.21764 19.1338 1 59.41403 15.19498 1 60.29728 15.69475 1 62.36486 19.31858 1 61.29364 15.99461 1 62.40309 16.09457 1 64.3261 19.15849 1 63.51134 15.99581 1 64.50411 15.69953 1 66.08107 18.67824 1 65.38139 15.20573 1 66.14319 14.51442 1 66.75924 13.6224 1 67.19928 12.52649 1 67.4633 11.22669 1</float_array>
                    <technique_common>
                        <accessor count="192" source="#ID28" stride="3">
                            <param name="X" type="float" />
                            <param name="Y" type="float" />
                            <param name="Z" type="float" />
                        </accessor>
                    </technique_common>
                </source>
                <source id="ID26">
                    <float_array id="ID29" count="576">-0 -0 -1 -0 -0 -1 -0 -0 -1 -0 -0 -1 -0 -0 -1 -0 -0 -1 -0 -0 -1 -0 -0 -1 -0 -0 -1 -0 -0 -1 -0 -0 -1 -0 -0 -1 -0 -0 -1 -0 -0 -1 -0 -0 -1 -0 -0 -1 -0 -0 -1 -0 -0 -1 -0 -0 -1 -0 -0 -1 -0 -0 -1 -0 -0 -1 -0 -0 -1 -0 -0 -1 -0 -0 -1 -0 -0 -1 -0 -0 -1 -0 -0 -1 -0 -0 -1 -0 -0 -1 -0 -0 -1 -0 -0 -1 -0 -0 -1 -0 -0 -1 -0 -0 -1 -0 -0 -1 -0 -0 -1 -0 -0 -1 -0 -0 -1 -0 -0 -1 -0 -0 -1 -0 -0 -1 -0 -0 -1 -0 -0 -1 -0 -0 -1 -0 -0 -1 -0 -0 -1 -0 -0 -1 -0 -0 -1 -0 -0 -1 -0 -0 -1 -0 -0 -1 -0 -0 -1 -0 -0 -1 -0 -0 -1 -0 -0 -1 -0 -0 -1 -0 -0 -1 -0 -0 -1 -0 -0 -1 -0 -0 -1 -0 -0 -1 -0 -0 -1 -0 -0 -1 -0.9830706 0.1832273 0 -0.9999911 0.004208335 0 -0.9999911 0.004208335 0 -0.9830706 0.1832273 0 -0.9219926 0.3872075 0 -0.9219926 0.3872075 0 -0.8274213 0.5615817 0 -0.8274213 0.5615817 0 -0.7150848 0.6990377 0 -0.7150848 0.6990377 0 -0.5692777 0.8221453 0 -0.5692777 0.8221453 0 -0.3850621 0.9228907 0 -0.3850621 0.9228907 0 -0.1852376 0.9826938 0 -0.1852376 0.9826938 0 -0.002199061 0.9999976 0 -0.002199061 0.9999976 0 0.1733989 0.9848517 0 0.1733989 0.9848517 0 0.3635476 0.9315756 0 0.3635476 0.9315756 0 0.5532887 0.8329895 0 0.5532887 0.8329895 0 0.7205986 0.6933525 0 0.7205986 0.6933525 0 0.8539366 0.520377 0 0.8539366 0.520377 0 0.9433029 0.3319331 0 0.9433029 0.3319331 0 0.9879422 0.154823 0 0.9879422 0.154823 0 1 -8.296626e-006 0 1 -8.296626e-006 0 0.9879556 -0.1547377 0 0.9879556 -0.1547377 0 0.9434739 -0.3314467 0 0.9434739 -0.3314467 0 0.8546645 -0.5191807 0 0.8546645 -0.5191807 0 0.7220193 -0.6918729 0 0.7220193 -0.6918729 0 0.5546779 -0.8320652 0 0.5546779 -0.8320652 0 0.3643206 -0.9312736 0 0.3643206 -0.9312736 0 0.1736672 -0.9848044 0 0.1736672 -0.9848044 0 0.0006579858 -0.9999998 0 0.0006579858 -0.9999998 0 -0.1712622 -0.9852255 0 -0.1712622 -0.9852255 0 -0.3605354 -0.9327455 0 -0.3605354 -0.9327455 0 -0.5512661 -0.8343295 0 -0.5512661 -0.8343295 0 -0.7196123 -0.694376 0 -0.7196123 -0.694376 0 -0.8528296 -0.5221893 0 -0.8528296 -0.5221893 0 -0.9423956 -0.3345005 0 -0.9423956 -0.3345005 0 -0.9876667 -0.1565708 0 -0.9876667 -0.1565708 0 0 0 1 0 0 1 0 0 1 0 0 1 0 0 1 0 0 1 0 0 1 0 0 1 0 0 1 0 0 1 0 0 1 0 0 1 0 0 1 0 0 1 0 0 1 0 0 1 0 0 1 0 0 1 0 0 1 0 0 1 0 0 1 0 0 1 0 0 1 0 0 1 0 0 1 0 0 1 0 0 1 0 0 1 0 0 1 0 0 1 0 0 1 0 0 1 0 0 1 0 0 1 0 0 1 0 0 1 0 0 1 0 0 1 0 0 1 0 0 1 0 0 1 0 0 1 0 0 1 0 0 1 0 0 1 0 0 1 0 0 1 0 0 1 0 0 1 0 0 1 0 0 1 0 0 1 0 0 1 0 0 1 0 0 1 0 0 1 0 0 1 0 0 1 0 0 1 0 0 1 0 0 1 0 0 1 0 0 1 0 0 1</float_array>
                    <technique_common>
                        <accessor count="192" source="#ID29" stride="3">
                            <param name="X" type="float" />
                            <param name="Y" type="float" />
                            <param name="Z" type="float" />
                        </accessor>
                    </technique_common>
                </source>
                <vertices id="ID27">
                    <input semantic="POSITION" source="#ID25" />
                    <input semantic="NORMAL" source="#ID26" />
                </vertices>
                <triangles count="192" material="Material2">
                    <input offset="0" semantic="VERTEX" source="#ID27" />
                    <p>0 1 2 1 0 3 3 0 4 3 4 5 5 4 6 5 6 7 7 6 8 7 8 9 9 8 10 9 10 11 11 10 12 12 10 13 12 13 14 14 13 15 15 13 16 16 13 17 16 17 18 18 17 19 19 17 20 19 20 21 21 20 22 22 20 23 22 23 24 24 23 25 25 23 26 25 26 27 27 26 28 28 26 29 28 29 30 30 29 31 31 29 32 32 29 33 9 34 35 34 9 11 35 34 36 35 36 37 35 37 38 35 38 39 39 38 40 39 40 41 39 41 42 39 42 43 43 42 44 43 44 45 43 45 46 46 45 47 46 47 48 48 47 49 48 49 50 48 50 51 48 51 52 52 51 53 52 53 54 52 54 33 52 33 29 52 29 55 52 55 56 56 55 57 56 57 58 58 57 59 58 59 60 60 59 61 60 61 62 62 61 63 64 65 66 65 64 67 68 67 64 67 68 69 70 69 68 69 70 71 72 71 70 71 72 73 72 74 73 74 72 75 75 76 74 76 75 77 77 78 76 78 77 79 79 80 78 80 79 81 81 82 80 82 81 83 83 84 82 84 83 85 85 86 84 86 85 87 87 88 86 88 87 89 88 90 91 90 88 89 91 92 93 92 91 90 93 94 95 94 93 92 95 96 97 96 95 94 97 98 99 98 97 96 99 100 101 100 99 98 101 102 103 102 101 100 103 104 105 104 103 102 104 106 105 106 104 107 107 108 106 108 107 109 109 110 108 110 109 111 111 112 110 112 111 113 113 114 112 114 113 115 115 116 114 116 115 117 117 118 116 118 117 119 119 120 118 120 119 121 122 120 121 120 122 123 124 123 122 123 124 125 126 125 124 125 126 127 66 127 126 127 66 65 128 129 130 129 128 131 129 131 132 132 131 133 133 131 134 134 131 135 134 135 136 136 135 137 137 135 138 138 135 139 138 139 140 140 139 141 141 139 142 141 142 143 143 142 144 143 144 145 145 144 146 146 144 147 147 144 148 147 148 149 149 148 150 150 148 151 151 148 152 152 148 153 153 148 154 153 154 155 155 154 156 155 156 157 157 156 158 157 158 159 159 158 160 159 160 161 162 163 164 163 162 165 163 165 166 166 165 167 166 167 168 168 167 169 168 169 170 170 169 128 170 128 171 171 128 130 171 130 172 171 172 173 173 172 174 173 174 175 173 175 176 173 176 177 177 176 178 177 178 179 177 179 180 180 179 181 180 181 182 180 182 183 183 182 184 183 184 185 183 185 186 186 185 187 186 187 188 186 188 152 152 188 189 152 189 190 152 190 191 152 191 151</p>
                </triangles>
            </mesh>
        </geometry>
        <geometry id="ID30">
            <mesh>
                <source id="ID31">
                    <float_array id="ID34" count="234">74.34339 19 0 77.84775 15.02414 0 74.34339 0.3185781 0 79.9886 19 0 81.54326 0.3185781 0 83.37827 6.256875 0 85.17505 0.3185781 0 86.72971 19 0 88.8833 15.02414 0 92.38766 19 0 88.8833 0.3185781 0 92.38766 0.3185781 0 77.84775 0.3185781 0 74.34339 19 1 74.34339 0.3185781 0 74.34339 0.3185781 1 74.34339 19 0 74.34339 19 1 79.9886 19 0 74.34339 19 0 79.9886 19 1 79.9886 19 0 83.37827 6.256875 1 83.37827 6.256875 0 79.9886 19 1 86.72971 19 1 83.37827 6.256875 0 83.37827 6.256875 1 86.72971 19 0 86.72971 19 1 92.38766 19 0 86.72971 19 0 92.38766 19 1 92.38766 19 0 92.38766 0.3185781 1 92.38766 0.3185781 0 92.38766 19 1 92.38766 0.3185781 1 88.8833 0.3185781 0 92.38766 0.3185781 0 88.8833 0.3185781 1 88.8833 15.02414 1 88.8833 0.3185781 0 88.8833 0.3185781 1 88.8833 15.02414 0 88.8833 15.02414 0 85.17505 0.3185781 1 85.17505 0.3185781 0 88.8833 15.02414 1 85.17505 0.3185781 1 81.54326 0.3185781 0 85.17505 0.3185781 0 81.54326 0.3185781 1 77.84775 15.02414 1 81.54326 0.3185781 0 81.54326 0.3185781 1 77.84775 15.02414 0 77.84775 15.02414 0 77.84775 0.3185781 1 77.84775 0.3185781 0 77.84775 15.02414 1 77.84775 0.3185781 1 74.34339 0.3185781 0 77.84775 0.3185781 0 74.34339 0.3185781 1 92.38766 0.3185781 1 88.8833 15.02414 1 88.8833 0.3185781 1 77.84775 0.3185781 1 74.34339 19 1 74.34339 0.3185781 1 77.84775 15.02414 1 79.9886 19 1 81.54326 0.3185781 1 83.37827 6.256875 1 85.17505 0.3185781 1 86.72971 19 1 92.38766 19 1</float_array>
                    <technique_common>
                        <accessor count="78" source="#ID34" stride="3">
                            <param name="X" type="float" />
                            <param name="Y" type="float" />
                            <param name="Z" type="float" />
                        </accessor>
                    </technique_common>
                </source>
                <source id="ID32">
                    <float_array id="ID35" count="234">-0 -0 -1 -0 -0 -1 -0 -0 -1 -0 -0 -1 -0 -0 -1 -0 -0 -1 -0 -0 -1 -0 -0 -1 -0 -0 -1 -0 -0 -1 -0 -0 -1 -0 -0 -1 -0 -0 -1 -1 0 0 -1 0 0 -1 0 0 -1 0 0 0 1 0 0 1 0 0 1 0 0 1 0 0.9663951 0.2570611 -0 0.9663951 0.2570611 -0 0.9663951 0.2570611 -0 0.9663951 0.2570611 -0 -0.9671121 0.2543505 0 -0.9671121 0.2543505 0 -0.9671121 0.2543505 0 -0.9671121 0.2543505 0 0 1 0 0 1 0 0 1 0 0 1 0 1 0 -0 1 0 -0 1 0 -0 1 0 -0 0 -1 0 0 -1 0 0 -1 0 0 -1 0 -1 0 0 -1 0 0 -1 0 0 -1 0 0 0.9696462 -0.2445122 0 0.9696462 -0.2445122 0 0.9696462 -0.2445122 0 0.9696462 -0.2445122 0 0 -1 0 0 -1 0 0 -1 0 0 -1 0 -0.9698452 -0.2437219 0 -0.9698452 -0.2437219 0 -0.9698452 -0.2437219 0 -0.9698452 -0.2437219 0 1 0 -0 1 0 -0 1 0 -0 1 0 -0 0 -1 0 0 -1 0 0 -1 0 0 -1 0 0 0 1 0 0 1 0 0 1 0 0 1 0 0 1 0 0 1 0 0 1 0 0 1 0 0 1 0 0 1 0 0 1 0 0 1 0 0 1</float_array>
                    <technique_common>
                        <accessor count="78" source="#ID35" stride="3">
                            <param name="X" type="float" />
                            <param name="Y" type="float" />
                            <param name="Z" type="float" />
                        </accessor>
                    </technique_common>
                </source>
                <vertices id="ID33">
                    <input semantic="POSITION" source="#ID31" />
                    <input semantic="NORMAL" source="#ID32" />
                </vertices>
                <triangles count="48" material="Material2">
                    <input offset="0" semantic="VERTEX" source="#ID33" />
                    <p>0 1 2 1 0 3 1 3 4 4 3 5 4 5 6 6 5 7 6 7 8 8 7 9 8 9 10 10 9 11 12 2 1 13 14 15 14 13 16 17 18 19 18 17 20 21 22 23 22 21 24 25 26 27 26 25 28 29 30 31 30 29 32 33 34 35 34 33 36 37 38 39 38 37 40 41 42 43 42 41 44 45 46 47 46 45 48 49 50 51 50 49 52 53 54 55 54 53 56 57 58 59 58 57 60 61 62 63 62 61 64 65 66 67 68 69 70 69 68 71 69 71 72 72 71 73 72 73 74 74 73 75 74 75 76 76 75 66 76 66 77 77 66 65</p>
                </triangles>
            </mesh>
        </geometry>
        <geometry id="ID36">
            <mesh>
                <source id="ID37">
                    <float_array id="ID40" count="162">101.5117 19 0 98.23675 0.3185781 0 94.23541 0.3185781 0 99.77867 4.562039 0 100.9383 7.709591 0 103.4614 14.64185 0 105.5003 19 0 106.0355 7.709591 0 112.9805 0.3185781 0 107.2461 4.562039 0 108.8773 0.3185781 0 112.9805 0.3185781 1 108.8773 0.3185781 0 112.9805 0.3185781 0 108.8773 0.3185781 1 107.2461 4.562039 1 108.8773 0.3185781 0 108.8773 0.3185781 1 107.2461 4.562039 0 107.2461 4.562039 1 99.77867 4.562039 0 107.2461 4.562039 0 99.77867 4.562039 1 99.77867 4.562039 0 98.23675 0.3185781 1 98.23675 0.3185781 0 99.77867 4.562039 1 98.23675 0.3185781 1 94.23541 0.3185781 0 98.23675 0.3185781 0 94.23541 0.3185781 1 101.5117 19 1 94.23541 0.3185781 0 94.23541 0.3185781 1 101.5117 19 0 101.5117 19 1 105.5003 19 0 101.5117 19 0 105.5003 19 1 105.5003 19 0 112.9805 0.3185781 1 112.9805 0.3185781 0 105.5003 19 1 107.2461 4.562039 1 100.9383 7.709591 1 99.77867 4.562039 1 106.0355 7.709591 1 98.23675 0.3185781 1 101.5117 19 1 94.23541 0.3185781 1 103.4614 14.64185 1 105.5003 19 1 112.9805 0.3185781 1 108.8773 0.3185781 1</float_array>
                    <technique_common>
                        <accessor count="54" source="#ID40" stride="3">
                            <param name="X" type="float" />
                            <param name="Y" type="float" />
                            <param name="Z" type="float" />
                        </accessor>
                    </technique_common>
                </source>
                <source id="ID38">
                    <float_array id="ID41" count="162">-0 -0 -1 -0 -0 -1 -0 -0 -1 -0 -0 -1 -0 -0 -1 -0 -0 -1 -0 -0 -1 -0 -0 -1 -0 -0 -1 -0 -0 -1 -0 -0 -1 0 -1 0 0 -1 0 0 -1 0 0 -1 0 -0.9334178 -0.3587912 0 -0.9334178 -0.3587912 0 -0.9334178 -0.3587912 0 -0.9334178 -0.3587912 0 0 -1 0 0 -1 0 0 -1 0 0 -1 0 0.9398758 -0.3415164 0 0.9398758 -0.3415164 0 0.9398758 -0.3415164 0 0.9398758 -0.3415164 0 0 -1 0 0 -1 0 0 -1 0 0 -1 0 -0.9318137 0.362937 0 -0.9318137 0.362937 0 -0.9318137 0.362937 0 -0.9318137 0.362937 0 0 1 0 0 1 0 0 1 0 0 1 0 0.9283456 0.3717182 -0 0.9283456 0.3717182 -0 0.9283456 0.3717182 -0 0.9283456 0.3717182 -0 0 0 1 0 0 1 0 0 1 0 0 1 0 0 1 0 0 1 0 0 1 0 0 1 0 0 1 0 0 1 0 0 1</float_array>
                    <technique_common>
                        <accessor count="54" source="#ID41" stride="3">
                            <param name="X" type="float" />
                            <param name="Y" type="float" />
                            <param name="Z" type="float" />
                        </accessor>
                    </technique_common>
                </source>
                <vertices id="ID39">
                    <input semantic="POSITION" source="#ID37" />
                    <input semantic="NORMAL" source="#ID38" />
                </vertices>
                <triangles count="38" material="Material2">
                    <input offset="0" semantic="VERTEX" source="#ID39" />
                    <p>0 1 2 1 0 3 3 0 4 4 0 5 5 0 6 5 6 7 7 6 8 7 8 9 9 8 10 4 9 3 9 4 7 11 12 13 12 11 14 15 16 17 16 15 18 19 20 21 20 19 22 23 24 25 24 23 26 27 28 29 28 27 30 31 32 33 32 31 34 35 36 37 36 35 38 39 40 41 40 39 42 43 44 45 44 43 46 47 48 49 48 47 45 48 45 44 48 44 50 48 50 51 51 50 46 51 46 52 52 46 43 52 43 53</p>
                </triangles>
            </mesh>
        </geometry>
        <geometry id="ID42">
            <mesh>
                <source id="ID43">
                    <float_array id="ID46" count="198">116.6092 15.01299 0 115.1469 11.09926 0 115.1469 14.34876 0 116.4347 11.59863 0 117.635 12.21747 0 118.1925 16.0882 0 118.7476 12.95578 0 119.5783 17.4756 0 119.7726 13.81355 0 120.448 19.07646 0 119.7726 0.3185781 0 123.3535 0.3185781 0 123.3535 19.07646 0 123.3535 0.3185781 1 119.7726 0.3185781 0 123.3535 0.3185781 0 119.7726 0.3185781 1 119.7726 13.81355 1 119.7726 0.3185781 0 119.7726 0.3185781 1 119.7726 13.81355 0 119.7726 13.81355 1 118.7476 12.95578 0 119.7726 13.81355 0 118.7476 12.95578 1 117.635 12.21747 0 117.635 12.21747 1 116.4347 11.59863 0 116.4347 11.59863 1 115.1469 11.09926 0 115.1469 11.09926 1 115.1469 14.34876 1 115.1469 11.09926 0 115.1469 11.09926 1 115.1469 14.34876 0 115.1469 14.34876 1 116.6092 15.01299 0 115.1469 14.34876 0 116.6092 15.01299 1 118.1925 16.0882 0 118.1925 16.0882 1 119.5783 17.4756 1 119.5783 17.4756 0 120.448 19.07646 1 120.448 19.07646 0 120.448 19.07646 1 123.3535 19.07646 0 120.448 19.07646 0 123.3535 19.07646 1 123.3535 19.07646 0 123.3535 0.3185781 1 123.3535 0.3185781 0 123.3535 19.07646 1 123.3535 0.3185781 1 119.7726 13.81355 1 119.7726 0.3185781 1 120.448 19.07646 1 123.3535 19.07646 1 116.4347 11.59863 1 115.1469 14.34876 1 115.1469 11.09926 1 116.6092 15.01299 1 117.635 12.21747 1 118.1925 16.0882 1 118.7476 12.95578 1 119.5783 17.4756 1</float_array>
                    <technique_common>
                        <accessor count="66" source="#ID46" stride="3">
                            <param name="X" type="float" />
                            <param name="Y" type="float" />
                            <param name="Z" type="float" />
                        </accessor>
                    </technique_common>
                </source>
                <source id="ID44">
                    <float_array id="ID47" count="198">-0 -0 -1 -0 -0 -1 -0 -0 -1 -0 -0 -1 -0 -0 -1 -0 -0 -1 -0 -0 -1 -0 -0 -1 -0 -0 -1 -0 -0 -1 -0 -0 -1 -0 -0 -1 -0 -0 -1 0 -1 0 0 -1 0 0 -1 0 0 -1 0 -1 0 0 -1 0 0 -1 0 0 -1 0 0 0.6417655 -0.7669009 0 0.5982578 -0.8013037 0 0.6417655 -0.7669009 0 0.5982578 -0.8013037 0 0.5063514 -0.8623272 0 0.5063514 -0.8623272 0 0.4104755 -0.9118716 0 0.4104755 -0.9118716 0 0.3615279 -0.9323613 0 0.3615279 -0.9323613 0 -1 0 0 -1 0 0 -1 0 0 -1 0 0 -0.4135788 0.9104683 0 -0.489453 0.8720297 0 -0.4135788 0.9104683 0 -0.489453 0.8720297 0 -0.6375069 0.7704446 0 -0.6375069 0.7704446 0 -0.8013499 0.5981959 0 -0.8013499 0.5981959 0 -0.8786963 0.4773813 0 -0.8786963 0.4773813 0 0 1 0 0 1 0 0 1 0 0 1 0 1 0 -0 1 0 -0 1 0 -0 1 0 -0 0 0 1 0 0 1 0 0 1 0 0 1 0 0 1 0 0 1 0 0 1 0 0 1 0 0 1 0 0 1 0 0 1 0 0 1 0 0 1</float_array>
                    <technique_common>
                        <accessor count="66" source="#ID47" stride="3">
                            <param name="X" type="float" />
                            <param name="Y" type="float" />
                            <param name="Z" type="float" />
                        </accessor>
                    </technique_common>
                </source>
                <vertices id="ID45">
                    <input semantic="POSITION" source="#ID43" />
                    <input semantic="NORMAL" source="#ID44" />
                </vertices>
                <triangles count="48" material="Material2">
                    <input offset="0" semantic="VERTEX" source="#ID45" />
                    <p>0 1 2 1 0 3 3 0 4 4 0 5 4 5 6 6 5 7 6 7 8 8 7 9 8 9 10 10 9 11 11 9 12 13 14 15 14 13 16 17 18 19 18 17 20 21 22 23 22 21 24 24 25 22 25 24 26 26 27 25 27 26 28 28 29 27 29 28 30 31 32 33 32 31 34 35 36 37 36 35 38 38 39 36 39 38 40 41 39 40 39 41 42 43 42 41 42 43 44 45 46 47 46 45 48 49 50 51 50 49 52 53 54 55 54 53 56 56 53 57 58 59 60 59 58 61 61 58 62 61 62 63 63 62 64 63 64 65 65 64 54 65 54 56</p>
                </triangles>
            </mesh>
        </geometry>
        <geometry id="ID48">
            <mesh>
                <source id="ID49">
                    <float_array id="ID52" count="702">131.0248 18.74514 0 132.0952 8.60161 0 129.1898 9.022133 0 133.7391 15.3937 0 140.493 18.74514 0 133.1784 12.22066 0 132.7268 9.198147 0 140.493 15.3937 0 133.3982 9.624245 0 134.389 12.66985 0 134.1094 9.879904 0 134.8605 9.965124 0 135.6251 12.81958 0 135.9803 9.750084 0 136.7712 12.71127 0 136.8675 9.104963 0 137.8265 12.38632 0 137.4458 8.029762 0 137.6385 6.52448 0 137.8073 0.6180416 0 138.9837 1.390594 0 138.791 11.84474 0 139.6647 11.08652 0 139.9832 2.472166 0 140.3894 10.15547 0 140.5686 3.40799 0 140.9071 9.095406 0 140.9868 4.405936 0 141.2177 7.906313 0 141.2376 5.466004 0 141.3213 6.588196 0 132.3246 5.492287 0 128.9979 4.010102 0 128.7565 5.122736 0 129.4033 3.016935 0 129.9727 2.143234 0 130.7062 1.389001 0 131.5815 0.7813129 0 132.5763 0.3472502 0 132.6273 4.407529 0 133.6905 0.08681254 0 133.2294 3.574447 0 134.0386 3.044014 0 134.9242 0 0 134.9624 2.867203 0 136.4542 0.1545104 0 135.9978 3.094987 0 136.8612 3.778337 0 137.4442 4.920439 0 128.7565 5.122736 1 132.3246 5.492287 0 128.7565 5.122736 0 132.3246 5.492287 1 132.3246 5.492287 0 132.6273 4.407529 1 132.6273 4.407529 0 132.3246 5.492287 1 132.6273 4.407529 0 133.2294 3.574447 1 133.2294 3.574447 0 132.6273 4.407529 1 133.2294 3.574447 1 134.0386 3.044014 0 133.2294 3.574447 0 134.0386 3.044014 1 134.0386 3.044014 1 134.9624 2.867203 0 134.0386 3.044014 0 134.9624 2.867203 1 134.9624 2.867203 1 135.9978 3.094987 0 134.9624 2.867203 0 135.9978 3.094987 1 135.9978 3.094987 1 136.8612 3.778337 0 135.9978 3.094987 0 136.8612 3.778337 1 137.4442 4.920439 1 136.8612 3.778337 0 136.8612 3.778337 1 137.4442 4.920439 0 137.6385 6.52448 1 137.4442 4.920439 0 137.4442 4.920439 1 137.6385 6.52448 0 137.4458 8.029762 1 137.4458 8.029762 0 136.8675 9.104963 1 137.4458 8.029762 0 137.4458 8.029762 1 136.8675 9.104963 0 136.8675 9.104963 1 135.9803 9.750084 0 136.8675 9.104963 0 135.9803 9.750084 1 135.9803 9.750084 1 134.8605 9.965124 0 135.9803 9.750084 0 134.8605 9.965124 1 134.1094 9.879904 0 134.1094 9.879904 1 133.3982 9.624245 0 133.3982 9.624245 1 132.7268 9.198147 0 132.7268 9.198147 1 132.0952 8.60161 0 132.0952 8.60161 1 132.0952 8.60161 1 129.1898 9.022133 0 132.0952 8.60161 0 129.1898 9.022133 1 131.0248 18.74514 1 129.1898 9.022133 0 129.1898 9.022133 1 131.0248 18.74514 0 131.0248 18.74514 1 140.493 18.74514 0 131.0248 18.74514 0 140.493 18.74514 1 140.493 18.74514 0 140.493 15.3937 1 140.493 15.3937 0 140.493 18.74514 1 140.493 15.3937 1 133.7391 15.3937 0 140.493 15.3937 0 133.7391 15.3937 1 133.7391 15.3937 0 133.1784 12.22066 1 133.1784 12.22066 0 133.7391 15.3937 1 133.1784 12.22066 1 134.389 12.66985 0 133.1784 12.22066 0 134.389 12.66985 1 135.6251 12.81958 0 135.6251 12.81958 1 136.7712 12.71127 0 136.7712 12.71127 1 137.8265 12.38632 0 137.8265 12.38632 1 138.791 11.84474 0 138.791 11.84474 1 139.6647 11.08652 0 139.6647 11.08652 1 140.3894 10.15547 1 140.3894 10.15547 0 140.9071 9.095406 1 140.9071 9.095406 0 141.2177 7.906313 1 141.2177 7.906313 0 141.3213 6.588196 1 141.3213 6.588196 0 141.2376 5.466004 1 141.2376 5.466004 0 140.9868 4.405936 1 140.9868 4.405936 0 140.5686 3.40799 1 140.5686 3.40799 0 139.9832 2.472166 1 139.9832 2.472166 0 138.9837 1.390594 1 138.9837 1.390594 0 137.8073 0.6180416 0 137.8073 0.6180416 1 136.4542 0.1545104 0 136.4542 0.1545104 1 134.9242 0 0 134.9242 0 1 133.6905 0.08681254 0 133.6905 0.08681254 1 132.5763 0.3472502 0 132.5763 0.3472502 1 131.5815 0.7813129 0 131.5815 0.7813129 1 130.7062 1.389001 0 130.7062 1.389001 1 129.9727 2.143234 1 129.9727 2.143234 0 129.4033 3.016935 1 129.4033 3.016935 0 128.9979 4.010102 1 128.9979 4.010102 0 128.7565 5.122736 1 128.7565 5.122736 0 128.9979 4.010102 1 132.3246 5.492287 1 128.7565 5.122736 1 129.4033 3.016935 1 129.9727 2.143234 1 130.7062 1.389001 1 131.5815 0.7813129 1 132.5763 0.3472502 1 132.6273 4.407529 1 133.6905 0.08681254 1 133.2294 3.574447 1 134.0386 3.044014 1 134.9242 0 1 134.9624 2.867203 1 136.4542 0.1545104 1 135.9978 3.094987 1 136.8612 3.778337 1 137.8073 0.6180416 1 137.4442 4.920439 1 137.6385 6.52448 1 133.3982 9.624245 1 133.1784 12.22066 1 132.7268 9.198147 1 134.389 12.66985 1 134.1094 9.879904 1 134.8605 9.965124 1 135.6251 12.81958 1 135.9803 9.750084 1 136.7712 12.71127 1 136.8675 9.104963 1 137.8265 12.38632 1 137.4458 8.029762 1 138.9837 1.390594 1 138.791 11.84474 1 139.6647 11.08652 1 139.9832 2.472166 1 140.3894 10.15547 1 140.5686 3.40799 1 140.9071 9.095406 1 140.9868 4.405936 1 141.2177 7.906313 1 141.2376 5.466004 1 141.3213 6.588196 1 132.0952 8.60161 1 131.0248 18.74514 1 129.1898 9.022133 1 133.7391 15.3937 1 140.493 18.74514 1 140.493 15.3937 1</float_array>
                    <technique_common>
                        <accessor count="234" source="#ID52" stride="3">
                            <param name="X" type="float" />
                            <param name="Y" type="float" />
                            <param name="Z" type="float" />
                        </accessor>
                    </technique_common>
                </source>
                <source id="ID50">
                    <float_array id="ID53" count="702">-0 -0 -1 -0 -0 -1 -0 -0 -1 -0 -0 -1 -0 -0 -1 -0 -0 -1 -0 -0 -1 -0 -0 -1 -0 -0 -1 -0 -0 -1 -0 -0 -1 -0 -0 -1 -0 -0 -1 -0 -0 -1 -0 -0 -1 -0 -0 -1 -0 -0 -1 -0 -0 -1 -0 -0 -1 -0 -0 -1 -0 -0 -1 -0 -0 -1 -0 -0 -1 -0 -0 -1 -0 -0 -1 -0 -0 -1 -0 -0 -1 -0 -0 -1 -0 -0 -1 -0 -0 -1 -0 -0 -1 -0 -0 -1 -0 -0 -1 -0 -0 -1 -0 -0 -1 -0 -0 -1 -0 -0 -1 -0 -0 -1 -0 -0 -1 -0 -0 -1 -0 -0 -1 -0 -0 -1 -0 -0 -1 -0 -0 -1 -0 -0 -1 -0 -0 -1 -0 -0 -1 -0 -0 -1 -0 -0 -1 -0.1030204 0.9946792 0 -0.1030204 0.9946792 0 -0.1030204 0.9946792 0 -0.1030204 0.9946792 0 0.9632133 0.2687379 -0 0.9632133 0.2687379 -0 0.9632133 0.2687379 -0 0.9632133 0.2687379 -0 0.8104749 0.5857734 -0 0.8104749 0.5857734 -0 0.8104749 0.5857734 -0 0.8104749 0.5857734 -0 0.5482248 0.836331 -0 0.5482248 0.836331 -0 0.5482248 0.836331 -0 0.5482248 0.836331 -0 0.187968 0.9821752 -0 0.187968 0.9821752 -0 0.187968 0.9821752 -0 0.187968 0.9821752 -0 -0.2148618 0.9766445 0 -0.2148618 0.9766445 0 -0.2148618 0.9766445 0 -0.2148618 0.9766445 0 -0.6206288 0.7841045 0 -0.6206288 0.7841045 0 -0.6206288 0.7841045 0 -0.6206288 0.7841045 0 -0.8906695 0.4546514 0 -0.8906695 0.4546514 0 -0.8906695 0.4546514 0 -0.8906695 0.4546514 0 -0.9999942 -0.00339251 0 -0.9927409 0.1202725 0 -0.9927409 0.1202725 0 -0.9999942 -0.00339251 0 -0.991902 -0.1270054 0 -0.991902 -0.1270054 0 -0.8807224 -0.4736329 0 -0.8807224 -0.4736329 0 -0.8807224 -0.4736329 0 -0.8807224 -0.4736329 0 -0.5880854 -0.8087989 0 -0.5880854 -0.8087989 0 -0.5880854 -0.8087989 0 -0.5880854 -0.8087989 0 -0.1885883 -0.9820562 0 -0.03836061 -0.999264 0 -0.1885883 -0.9820562 0 -0.03836061 -0.999264 0 0.2270349 -0.9738866 0 0.2270349 -0.9738866 0 0.4397227 -0.8981336 0 0.4397227 -0.8981336 0 0.6140532 -0.7892646 0 0.6140532 -0.7892646 0 0.6866505 -0.7269877 0 0.6866505 -0.7269877 0 -0.1432442 -0.9896874 0 -0.1432442 -0.9896874 0 -0.1432442 -0.9896874 0 -0.1432442 -0.9896874 0 -0.9826528 0.1854548 0 -0.9826528 0.1854548 0 -0.9826528 0.1854548 0 -0.9826528 0.1854548 0 0 1 0 0 1 0 0 1 0 0 1 0 1 0 -0 1 0 -0 1 0 -0 1 0 -0 0 -1 0 0 -1 0 0 -1 0 0 -1 0 0.9847437 -0.1740109 0 0.9847437 -0.1740109 0 0.9847437 -0.1740109 0 0.9847437 -0.1740109 0 -0.3478768 0.9375403 0 -0.2356876 0.9718289 0 -0.3478768 0.9375403 0 -0.2356876 0.9718289 0 -0.01315788 0.9999134 0 -0.01315788 0.9999134 0 0.1952091 0.9807617 0 0.1952091 0.9807617 0 0.394182 0.9190324 0 0.394182 0.9190324 0 0.5754849 0.8178124 0 0.5754849 0.8178124 0 0.7256951 0.6880164 0 0.7256951 0.6880164 0 0.8483831 0.5293827 0 0.8483831 0.5293827 0 0.9376817 0.3474954 0 0.9376817 0.3474954 0 0.9860963 0.1661748 0 0.9860963 0.1661748 0 0.999998 0.002002721 0 0.999998 0.002002721 0 0.9882594 -0.1527852 0 0.9882594 -0.1527852 0 0.9509262 -0.3094177 0 0.9509262 -0.3094177 0 0.8879731 -0.4598953 0 0.8879731 -0.4598953 0 0.7945738 -0.6071676 0 0.7945738 -0.6071676 0 0.6464683 -0.7629409 0 0.6464683 -0.7629409 0 0.4399666 -0.8980142 0 0.4399666 -0.8980142 0 0.2136768 -0.9769044 0 0.2136768 -0.9769044 0 0.01519724 -0.9998845 0 0.01519724 -0.9998845 0 -0.149373 -0.9887809 0 -0.149373 -0.9887809 0 -0.3150696 -0.9490686 0 -0.3150696 -0.9490686 0 -0.4874406 -0.8731561 0 -0.4874406 -0.8731561 0 -0.6465796 -0.7628466 0 -0.6465796 -0.7628466 0 -0.7809867 -0.6245476 0 -0.7809867 -0.6245476 0 -0.8858002 -0.4640668 0 -0.8858002 -0.4640668 0 -0.9551704 -0.2960566 0 -0.9551704 -0.2960566 0 -0.9772773 -0.2119649 0 -0.9772773 -0.2119649 0 0 0 1 0 0 1 0 0 1 0 0 1 0 0 1 0 0 1 0 0 1 0 0 1 0 0 1 0 0 1 0 0 1 0 0 1 0 0 1 0 0 1 0 0 1 0 0 1 0 0 1 0 0 1 0 0 1 0 0 1 0 0 1 0 0 1 0 0 1 0 0 1 0 0 1 0 0 1 0 0 1 0 0 1 0 0 1 0 0 1 0 0 1 0 0 1 0 0 1 0 0 1 0 0 1 0 0 1 0 0 1 0 0 1 0 0 1 0 0 1 0 0 1 0 0 1 0 0 1 0 0 1 0 0 1 0 0 1 0 0 1 0 0 1 0 0 1</float_array>
                    <technique_common>
                        <accessor count="234" source="#ID53" stride="3">
                            <param name="X" type="float" />
                            <param name="Y" type="float" />
                            <param name="Z" type="float" />
                        </accessor>
                    </technique_common>
                </source>
                <vertices id="ID51">
                    <input semantic="POSITION" source="#ID49" />
                    <input semantic="NORMAL" source="#ID50" />
                </vertices>
                <triangles count="192" material="Material2">
                    <input offset="0" semantic="VERTEX" source="#ID51" />
                    <p>0 1 2 1 0 3 3 0 4 1 3 5 1 5 6 3 4 7 5 8 6 8 5 9 8 9 10 10 9 11 11 9 12 11 12 13 13 12 14 13 14 15 15 14 16 15 16 17 17 16 18 18 16 19 19 16 20 20 16 21 20 21 22 20 22 23 23 22 24 23 24 25 25 24 26 25 26 27 27 26 28 27 28 29 29 28 30 31 32 33 32 31 34 34 31 35 35 31 36 36 31 37 37 31 38 38 31 39 38 39 40 40 39 41 40 41 42 40 42 43 43 42 44 43 44 45 45 44 46 45 46 47 45 47 19 19 47 48 19 48 18 49 50 51 50 49 52 53 54 55 54 53 56 57 58 59 58 57 60 61 62 63 62 61 64 65 66 67 66 65 68 69 70 71 70 69 72 73 74 75 74 73 76 77 78 79 78 77 80 81 82 83 82 81 84 85 84 81 84 85 86 87 88 89 88 87 90 91 92 93 92 91 94 95 96 97 96 95 98 98 99 96 99 98 100 100 101 99 101 100 102 102 103 101 103 102 104 104 105 103 105 104 106 107 108 109 108 107 110 111 112 113 112 111 114 115 116 117 116 115 118 119 120 121 120 119 122 123 124 125 124 123 126 127 128 129 128 127 130 131 132 133 132 131 134 134 135 132 135 134 136 136 137 135 137 136 138 138 139 137 139 138 140 140 141 139 141 140 142 142 143 141 143 142 144 143 145 146 145 143 144 146 147 148 147 146 145 148 149 150 149 148 147 150 151 152 151 150 149 152 153 154 153 152 151 154 155 156 155 154 153 156 157 158 157 156 155 158 159 160 159 158 157 160 161 162 161 160 159 161 163 162 163 161 164 164 165 163 165 164 166 166 167 165 167 166 168 168 169 167 169 168 170 170 171 169 171 170 172 172 173 171 173 172 174 174 175 173 175 174 176 177 175 176 175 177 178 179 178 177 178 179 180 181 180 179 180 181 182 183 182 181 182 183 184 185 186 187 186 185 188 186 188 189 186 189 190 186 190 191 186 191 192 186 192 193 193 192 194 193 194 195 195 194 196 196 194 197 196 197 198 198 197 199 198 199 200 200 199 201 201 199 202 201 202 203 203 202 204 205 206 207 206 205 208 208 205 209 208 209 210 208 210 211 211 210 212 211 212 213 213 212 214 213 214 215 215 214 216 215 216 204 215 204 202 215 202 217 215 217 218 218 217 219 219 217 220 219 220 221 221 220 222 221 222 223 223 222 224 223 224 225 225 224 226 225 226 227 228 229 230 229 228 231 229 231 232 231 228 206 206 228 207 232 231 233</p>
                </triangles>
            </mesh>
        </geometry>
        <geometry id="ID54">
            <mesh>
                <source id="ID55">
                    <float_array id="ID58" count="966">143.7918 15.72024 0 146.6606 13.63514 0 143.3602 14.19584 0 144.3987 16.90376 0 145.2302 17.80852 0 146.3357 18.49665 0 147.653 18.93151 0 146.9282 14.71194 0 147.4507 15.49564 0 148.1675 15.97351 0 149.1201 19.07646 0 149.0181 16.1328 0 149.856 15.99262 0 150.3737 18.97133 0 150.5091 15.5721 0 151.4966 18.65594 0 150.9296 14.91583 0 151.0698 14.06841 0 151.108 8.219316 0 151.6527 7.289068 0 152.489 18.13028 0 151.9745 10.36016 0 151.8343 6.078471 0 153.1509 11.15501 0 153.3508 17.39437 0 153.9911 12.07411 0 153.925 16.68394 0 154.3352 15.92891 0 154.4953 13.11745 0 154.5813 15.12928 0 154.6633 14.28504 0 146.5587 5.696177 0 143.314 4.153064 0 143.0926 5.275654 0 143.7106 3.142773 0 144.2824 2.244781 0 145.0295 1.459088 0 145.9183 0.8207369 0 146.9155 0.364772 0 146.8645 4.526995 0 147.4507 3.67002 0 148.021 0.09119299 0 148.2535 3.144366 0 149.2347 0 0 149.2093 2.969148 0 150.2303 3.17941 0 150.5178 0.1083166 0 151.0761 3.810195 0 151.691 0.4332663 0 151.6448 4.797787 0 152.7542 0.9748491 0 153.4193 9.802649 0 153.7076 1.733065 0 154.5423 8.818243 0 154.4937 2.644995 0 155.0552 3.64772 0 155.2638 7.496144 0 155.3921 4.741239 0 155.5044 5.925553 0 148.0879 11.65996 0 149.3367 9.00939 0 147.6928 8.741784 0 149.3685 11.79854 0 150.302 8.811871 0 150.3052 12.29074 0 150.8786 13.06967 0 143.0926 5.275654 1 146.5587 5.696177 0 143.0926 5.275654 0 146.5587 5.696177 1 146.5587 5.696177 0 146.8645 4.526995 1 146.8645 4.526995 0 146.5587 5.696177 1 147.4507 3.67002 1 147.4507 3.67002 0 147.4507 3.67002 1 148.2535 3.144366 0 147.4507 3.67002 0 148.2535 3.144366 1 148.2535 3.144366 1 149.2093 2.969148 0 148.2535 3.144366 0 149.2093 2.969148 1 149.2093 2.969148 1 150.2303 3.17941 0 149.2093 2.969148 0 150.2303 3.17941 1 150.2303 3.17941 1 151.0761 3.810195 0 150.2303 3.17941 0 151.0761 3.810195 1 151.6448 4.797787 1 151.0761 3.810195 0 151.0761 3.810195 1 151.6448 4.797787 0 151.8343 6.078471 1 151.6448 4.797787 0 151.6448 4.797787 1 151.8343 6.078471 0 151.6527 7.289068 1 151.6527 7.289068 0 151.108 8.219316 1 151.6527 7.289068 0 151.6527 7.289068 1 151.108 8.219316 0 151.108 8.219316 1 150.302 8.811871 0 151.108 8.219316 0 150.302 8.811871 1 150.302 8.811871 1 149.3367 9.00939 0 150.302 8.811871 0 149.3367 9.00939 1 149.3367 9.00939 1 147.6928 8.741784 0 149.3367 9.00939 0 147.6928 8.741784 1 148.0879 11.65996 1 147.6928 8.741784 0 147.6928 8.741784 1 148.0879 11.65996 0 148.0879 11.65996 1 149.3685 11.79854 0 148.0879 11.65996 0 149.3685 11.79854 1 149.3685 11.79854 1 150.3052 12.29074 0 149.3685 11.79854 0 150.3052 12.29074 1 150.8786 13.06967 1 150.3052 12.29074 0 150.3052 12.29074 1 150.8786 13.06967 0 151.0698 14.06841 1 150.8786 13.06967 0 150.8786 13.06967 1 151.0698 14.06841 0 150.9296 14.91583 1 151.0698 14.06841 0 151.0698 14.06841 1 150.9296 14.91583 0 150.5091 15.5721 1 150.9296 14.91583 0 150.9296 14.91583 1 150.5091 15.5721 0 150.5091 15.5721 1 149.856 15.99262 0 150.5091 15.5721 0 149.856 15.99262 1 149.856 15.99262 1 149.0181 16.1328 0 149.856 15.99262 0 149.0181 16.1328 1 149.0181 16.1328 1 148.1675 15.97351 0 149.0181 16.1328 0 148.1675 15.97351 1 148.1675 15.97351 1 147.4507 15.49564 0 148.1675 15.97351 0 147.4507 15.49564 1 147.4507 15.49564 0 146.9282 14.71194 1 146.9282 14.71194 0 147.4507 15.49564 1 146.6606 13.63514 1 146.6606 13.63514 0 146.6606 13.63514 1 143.3602 14.19584 0 146.6606 13.63514 0 143.3602 14.19584 1 143.7918 15.72024 1 143.3602 14.19584 0 143.3602 14.19584 1 143.7918 15.72024 0 144.3987 16.90376 1 144.3987 16.90376 0 145.2302 17.80852 1 145.2302 17.80852 0 146.3357 18.49665 0 146.3357 18.49665 1 147.653 18.93151 0 147.653 18.93151 1 149.1201 19.07646 0 149.1201 19.07646 1 150.3737 18.97133 0 150.3737 18.97133 1 151.4966 18.65594 0 151.4966 18.65594 1 152.489 18.13028 0 152.489 18.13028 1 153.3508 17.39437 0 153.3508 17.39437 1 153.925 16.68394 1 153.925 16.68394 0 154.3352 15.92891 1 154.3352 15.92891 0 154.5813 15.12928 1 154.5813 15.12928 0 154.6633 14.28504 1 154.6633 14.28504 0 154.4953 13.11745 1 154.4953 13.11745 0 153.9911 12.07411 1 153.9911 12.07411 0 153.1509 11.15501 1 153.1509 11.15501 0 151.9745 10.36016 0 151.9745 10.36016 1 151.9745 10.36016 1 153.4193 9.802649 0 151.9745 10.36016 0 153.4193 9.802649 1 153.4193 9.802649 1 154.5423 8.818243 0 153.4193 9.802649 0 154.5423 8.818243 1 154.5423 8.818243 0 155.2638 7.496144 1 155.2638 7.496144 0 154.5423 8.818243 1 155.5044 5.925553 1 155.5044 5.925553 0 155.3921 4.741239 1 155.3921 4.741239 0 155.0552 3.64772 1 155.0552 3.64772 0 154.4937 2.644995 1 154.4937 2.644995 0 153.7076 1.733065 1 153.7076 1.733065 0 152.7542 0.9748491 0 152.7542 0.9748491 1 151.691 0.4332663 0 151.691 0.4332663 1 150.5178 0.1083166 0 150.5178 0.1083166 1 149.2347 0 0 149.2347 0 1 148.021 0.09119299 0 148.021 0.09119299 1 146.9155 0.364772 0 146.9155 0.364772 1 145.9183 0.8207369 0 145.9183 0.8207369 1 145.0295 1.459088 0 145.0295 1.459088 1 144.2824 2.244781 1 144.2824 2.244781 0 143.7106 3.142773 1 143.7106 3.142773 0 143.314 4.153064 1 143.314 4.153064 0 143.0926 5.275654 1 143.0926 5.275654 0 149.3367 9.00939 1 148.0879 11.65996 1 147.6928 8.741784 1 149.3685 11.79854 1 150.302 8.811871 1 150.3052 12.29074 1 151.108 8.219316 1 150.8786 13.06967 1 151.0698 14.06841 1 146.6606 13.63514 1 143.7918 15.72024 1 143.3602 14.19584 1 144.3987 16.90376 1 145.2302 17.80852 1 146.3357 18.49665 1 147.653 18.93151 1 146.9282 14.71194 1 147.4507 15.49564 1 148.1675 15.97351 1 149.1201 19.07646 1 149.0181 16.1328 1 149.856 15.99262 1 150.3737 18.97133 1 150.5091 15.5721 1 151.4966 18.65594 1 150.9296 14.91583 1 151.6527 7.289068 1 152.489 18.13028 1 151.9745 10.36016 1 151.8343 6.078471 1 153.1509 11.15501 1 153.3508 17.39437 1 153.9911 12.07411 1 153.925 16.68394 1 154.3352 15.92891 1 154.4953 13.11745 1 154.5813 15.12928 1 154.6633 14.28504 1 143.314 4.153064 1 146.5587 5.696177 1 143.0926 5.275654 1 143.7106 3.142773 1 144.2824 2.244781 1 145.0295 1.459088 1 145.9183 0.8207369 1 146.9155 0.364772 1 146.8645 4.526995 1 147.4507 3.67002 1 148.021 0.09119299 1 148.2535 3.144366 1 149.2347 0 1 149.2093 2.969148 1 150.2303 3.17941 1 150.5178 0.1083166 1 151.0761 3.810195 1 151.691 0.4332663 1 151.6448 4.797787 1 152.7542 0.9748491 1 153.4193 9.802649 1 153.7076 1.733065 1 154.5423 8.818243 1 154.4937 2.644995 1 155.0552 3.64772 1 155.2638 7.496144 1 155.3921 4.741239 1 155.5044 5.925553 1</float_array>
                    <technique_common>
                        <accessor count="322" source="#ID58" stride="3">
                            <param name="X" type="float" />
                            <param name="Y" type="float" />
                            <param name="Z" type="float" />
                        </accessor>
                    </technique_common>
                </source>
                <source id="ID56">
                    <float_array id="ID59" count="966">-0 -0 -1 -0 -0 -1 -0 -0 -1 -0 -0 -1 -0 -0 -1 -0 -0 -1 -0 -0 -1 -0 -0 -1 -0 -0 -1 -0 -0 -1 -0 -0 -1 -0 -0 -1 -0 -0 -1 -0 -0 -1 -0 -0 -1 -0 -0 -1 -0 -0 -1 -0 -0 -1 -0 -0 -1 -0 -0 -1 -0 -0 -1 -0 -0 -1 -0 -0 -1 -0 -0 -1 -0 -0 -1 -0 -0 -1 -0 -0 -1 -0 -0 -1 -0 -0 -1 -0 -0 -1 -0 -0 -1 -0 -0 -1 -0 -0 -1 -0 -0 -1 -0 -0 -1 -0 -0 -1 -0 -0 -1 -0 -0 -1 -0 -0 -1 -0 -0 -1 -0 -0 -1 -0 -0 -1 -0 -0 -1 -0 -0 -1 -0 -0 -1 -0 -0 -1 -0 -0 -1 -0 -0 -1 -0 -0 -1 -0 -0 -1 -0 -0 -1 -0 -0 -1 -0 -0 -1 -0 -0 -1 -0 -0 -1 -0 -0 -1 -0 -0 -1 -0 -0 -1 -0 -0 -1 -0 -0 -1 -0 -0 -1 -0 -0 -1 -0 -0 -1 -0 -0 -1 -0 -0 -1 -0 -0 -1 -0.1204404 0.9927206 0 -0.1204404 0.9927206 0 -0.1204404 0.9927206 0 -0.1204404 0.9927206 0 0.9674491 0.2530657 -0 0.9098465 0.414945 0 0.9098465 0.414945 0 0.9674491 0.2530657 -0 0.8253825 0.5645739 -0 0.8253825 0.5645739 -0 0.5477859 0.8366185 -0 0.5477859 0.8366185 -0 0.5477859 0.8366185 -0 0.5477859 0.8366185 -0 0.1803279 0.9836066 -0 0.1803279 0.9836066 -0 0.1803279 0.9836066 -0 0.1803279 0.9836066 -0 -0.201696 0.9794482 0 -0.201696 0.9794482 0 -0.201696 0.9794482 0 -0.201696 0.9794482 0 -0.5978239 0.8016275 0 -0.5978239 0.8016275 0 -0.5978239 0.8016275 0 -0.5978239 0.8016275 0 -0.8666041 0.4989963 0 -0.8666041 0.4989963 0 -0.8666041 0.4989963 0 -0.8666041 0.4989963 0 -0.9999995 -0.0009734123 0 -0.9892233 0.1464149 0 -0.9892233 0.1464149 0 -0.9999995 -0.0009734123 0 -0.9889364 -0.1483405 0 -0.9889364 -0.1483405 0 -0.8629202 -0.5053402 0 -0.8629202 -0.5053402 0 -0.8629202 -0.5053402 0 -0.8629202 -0.5053402 0 -0.5923297 -0.8056957 0 -0.5923297 -0.8056957 0 -0.5923297 -0.8056957 0 -0.5923297 -0.8056957 0 -0.2004668 -0.9797005 0 -0.2004668 -0.9797005 0 -0.2004668 -0.9797005 0 -0.2004668 -0.9797005 0 0.1606756 -0.9870073 0 0.1606756 -0.9870073 0 0.1606756 -0.9870073 0 0.1606756 -0.9870073 0 -0.9909614 0.1341476 0 -0.9909614 0.1341476 0 -0.9909614 0.1341476 0 -0.9909614 0.1341476 0 -0.1075809 0.9941963 0 -0.1075809 0.9941963 0 -0.1075809 0.9941963 0 -0.1075809 0.9941963 0 -0.4651879 0.885212 0 -0.4651879 0.885212 0 -0.4651879 0.885212 0 -0.4651879 0.885212 0 -0.8053041 0.5928619 0 -0.8053041 0.5928619 0 -0.8053041 0.5928619 0 -0.8053041 0.5928619 0 -0.9821737 0.1879758 0 -0.9821737 0.1879758 0 -0.9821737 0.1879758 0 -0.9821737 0.1879758 0 -0.9865937 -0.1631959 0 -0.9865937 -0.1631959 0 -0.9865937 -0.1631959 0 -0.9865937 -0.1631959 0 -0.8419744 -0.5395175 0 -0.8419744 -0.5395175 0 -0.8419744 -0.5395175 0 -0.8419744 -0.5395175 0 -0.5413793 -0.8407785 0 -0.5413793 -0.8407785 0 -0.5413793 -0.8407785 0 -0.5413793 -0.8407785 0 -0.1650071 -0.9862924 0 -0.1650071 -0.9862924 0 -0.1650071 -0.9862924 0 -0.1650071 -0.9862924 0 0.1840663 -0.9829138 0 0.1840663 -0.9829138 0 0.1840663 -0.9829138 0 0.1840663 -0.9829138 0 0.5547002 -0.8320503 0 0.5547002 -0.8320503 0 0.5547002 -0.8320503 0 0.5547002 -0.8320503 0 0.8320503 -0.5547002 0 0.9147958 -0.4039166 0 0.9147958 -0.4039166 0 0.8320503 -0.5547002 0 0.9704794 -0.2411842 0 0.9704794 -0.2411842 0 -0.1674845 -0.9858747 0 -0.1674845 -0.9858747 0 -0.1674845 -0.9858747 0 -0.1674845 -0.9858747 0 -0.9305487 0.3661683 0 -0.9621663 0.272463 0 -0.9621663 0.272463 0 -0.9305487 0.3661683 0 -0.8204934 0.571656 0 -0.8204934 0.571656 0 -0.6382166 0.7698569 0 -0.6382166 0.7698569 0 -0.4239614 0.9056803 0 -0.4239614 0.9056803 0 -0.2071549 0.9783082 0 -0.2071549 0.9783082 0 -0.007409427 0.9999725 0 -0.007409427 0.9999725 0 0.1777823 0.9840698 0 0.1777823 0.9840698 0 0.3713468 0.9284943 0 0.3713468 0.9284943 0 0.5621297 0.8270491 0 0.5621297 0.8270491 0 0.7165942 0.6974904 0 0.7165942 0.6974904 0 0.8316565 0.5552904 0 0.8316565 0.5552904 0 0.9217965 0.3876742 0 0.9217965 0.3876742 0 0.9805175 0.1964316 0 0.9805175 0.1964316 0 0.9997346 -0.02303879 0 0.9997346 -0.02303879 0 0.9563548 -0.2922081 0 0.9563548 -0.2922081 0 0.8279428 -0.5608126 0 0.8279428 -0.5608126 0 0.6535048 -0.7569224 0 0.6535048 -0.7569224 0 0.5598678 -0.8285819 0 0.5598678 -0.8285819 0 0.3600128 0.9329474 -0 0.3600128 0.9329474 -0 0.3600128 0.9329474 -0 0.3600128 0.9329474 -0 0.659184 0.7519817 -0 0.659184 0.7519817 -0 0.659184 0.7519817 -0 0.659184 0.7519817 -0 0.8777743 0.4790744 -0 0.9474009 0.3200494 0 0.9474009 0.3200494 0 0.8777743 0.4790744 -0 0.9995878 0.02870817 0 0.9995878 0.02870817 0 0.9807172 -0.1954322 0 0.9807172 -0.1954322 0 0.9192361 -0.3937068 0 0.9192361 -0.3937068 0 0.8191067 -0.5736412 0 0.8191067 -0.5736412 0 0.692989 -0.7209482 0 0.692989 -0.7209482 0 0.5408909 -0.8410928 0 0.5408909 -0.8410928 0 0.3622314 -0.9320882 0 0.3622314 -0.9320882 0 0.1762895 -0.9843384 0 0.1762895 -0.9843384 0 0.004614773 -0.9999894 0 0.004614773 -0.9999894 0 -0.1581306 -0.9874182 0 -0.1581306 -0.9874182 0 -0.3294707 -0.9441658 0 -0.3294707 -0.9441658 0 -0.5019535 -0.8648946 0 -0.5019535 -0.8648946 0 -0.6569092 -0.7539697 0 -0.6569092 -0.7539697 0 -0.7877654 -0.6159753 0 -0.7877654 -0.6159753 0 -0.8913085 -0.4533974 0 -0.8913085 -0.4533974 0 -0.9598252 -0.2805986 0 -0.9598252 -0.2805986 0 -0.9810992 -0.1935052 0 -0.9810992 -0.1935052 0 0 0 1 0 0 1 0 0 1 0 0 1 0 0 1 0 0 1 0 0 1 0 0 1 0 0 1 0 0 1 0 0 1 0 0 1 0 0 1 0 0 1 0 0 1 0 0 1 0 0 1 0 0 1 0 0 1 0 0 1 0 0 1 0 0 1 0 0 1 0 0 1 0 0 1 0 0 1 0 0 1 0 0 1 0 0 1 0 0 1 0 0 1 0 0 1 0 0 1 0 0 1 0 0 1 0 0 1 0 0 1 0 0 1 0 0 1 0 0 1 0 0 1 0 0 1 0 0 1 0 0 1 0 0 1 0 0 1 0 0 1 0 0 1 0 0 1 0 0 1 0 0 1 0 0 1 0 0 1 0 0 1 0 0 1 0 0 1 0 0 1 0 0 1 0 0 1 0 0 1 0 0 1 0 0 1 0 0 1 0 0 1 0 0 1 0 0 1</float_array>
                    <technique_common>
                        <accessor count="322" source="#ID59" stride="3">
                            <param name="X" type="float" />
                            <param name="Y" type="float" />
                            <param name="Z" type="float" />
                        </accessor>
                    </technique_common>
                </source>
                <vertices id="ID57">
                    <input semantic="POSITION" source="#ID55" />
                    <input semantic="NORMAL" source="#ID56" />
                </vertices>
                <triangles count="260" material="Material2">
                    <input offset="0" semantic="VERTEX" source="#ID57" />
                    <p>0 1 2 1 0 3 1 3 4 1 4 5 1 5 6 1 6 7 7 6 8 8 6 9 9 6 10 9 10 11 11 10 12 12 10 13 12 13 14 14 13 15 14 15 16 16 15 17 17 15 18 18 15 19 19 15 20 19 20 21 19 21 22 21 20 23 23 20 24 23 24 25 25 24 26 25 26 27 25 27 28 28 27 29 28 29 30 31 32 33 32 31 34 34 31 35 35 31 36 36 31 37 37 31 38 38 31 39 38 39 40 38 40 41 41 40 42 41 42 43 43 42 44 43 44 45 43 45 46 46 45 47 46 47 48 48 47 49 48 49 22 48 22 50 50 22 21 50 21 51 50 51 52 52 51 53 52 53 54 54 53 55 55 53 56 55 56 57 57 56 58 59 60 61 60 59 62 60 62 63 63 62 64 63 64 18 18 64 65 18 65 17 66 67 68 67 66 69 70 71 72 71 70 73 72 74 75 74 72 71 76 77 78 77 76 79 80 81 82 81 80 83 84 85 86 85 84 87 88 89 90 89 88 91 92 93 94 93 92 95 96 97 98 97 96 99 100 99 96 99 100 101 102 103 104 103 102 105 106 107 108 107 106 109 110 111 112 111 110 113 114 115 116 115 114 117 118 119 120 119 118 121 122 123 124 123 122 125 126 127 128 127 126 129 130 131 132 131 130 133 134 135 136 135 134 137 138 139 140 139 138 141 142 143 144 143 142 145 146 147 148 147 146 149 150 151 152 151 150 153 154 155 156 155 154 157 158 159 160 159 158 161 162 163 164 163 162 165 164 166 167 166 164 163 168 169 170 169 168 171 172 173 174 173 172 175 176 175 172 175 176 177 178 177 176 177 178 179 178 180 179 180 178 181 181 182 180 182 181 183 183 184 182 184 183 185 185 186 184 186 185 187 187 188 186 188 187 189 189 190 188 190 189 191 191 192 190 192 191 193 192 194 195 194 192 193 195 196 197 196 195 194 197 198 199 198 197 196 199 200 201 200 199 198 201 202 203 202 201 200 203 204 205 204 203 202 205 206 207 206 205 204 206 208 207 208 206 209 210 211 212 211 210 213 214 215 216 215 214 217 218 219 220 219 218 221 220 222 223 222 220 219 223 224 225 224 223 222 225 226 227 226 225 224 227 228 229 228 227 226 229 230 231 230 229 228 230 232 231 232 230 233 233 234 232 234 233 235 235 236 234 236 235 237 237 238 236 238 237 239 239 240 238 240 239 241 241 242 240 242 241 243 243 244 242 244 243 245 245 246 244 246 245 247 248 246 247 246 248 249 250 249 248 249 250 251 252 251 250 251 252 253 254 253 252 253 254 255 256 257 258 257 256 259 259 256 260 259 260 261 261 260 262 261 262 263 263 262 264 265 266 267 266 265 268 268 265 269 269 265 270 270 265 271 271 265 272 271 272 273 271 273 274 271 274 275 275 274 276 275 276 277 275 277 278 278 277 279 278 279 280 280 279 281 280 281 264 280 264 262 280 262 282 280 282 283 283 282 284 284 282 285 283 284 286 283 286 287 287 286 288 287 288 289 289 288 290 290 288 291 290 291 292 292 291 293 294 295 296 295 294 297 295 297 298 295 298 299 295 299 300 295 300 301 295 301 302 302 301 303 303 301 304 303 304 305 305 304 306 305 306 307 307 306 308 308 306 309 308 309 310 310 309 311 310 311 312 312 311 285 285 311 313 285 313 284 284 313 314 314 313 315 314 315 316 316 315 317 316 317 318 316 318 319 319 318 320 319 320 321</p>
                </triangles>
            </mesh>
        </geometry>
        <geometry id="ID60">
            <mesh>
                <source id="ID61">
                    <float_array id="ID64" count="108">5.670691 15.8397 0 5.670691 10.53856 1 5.670691 10.53856 0 5.670691 15.8397 1 7.492958 15.8397 1 5.670691 15.8397 0 7.492958 15.8397 0 5.670691 15.8397 1 5.670691 10.53856 1 7.735077 10.53856 0 5.670691 10.53856 0 7.735077 10.53856 1 10.20724 15.71227 1 10.20724 15.71227 0 9.595573 10.61184 0 9.595573 10.61184 1 11.0451 15.42237 1 11.0451 15.42237 0 10.71697 10.83166 0 10.71697 10.83166 1 11.72368 14.88397 1 11.72368 14.88397 0 11.38758 11.20758 0 11.38758 11.20758 1 11.72368 14.88397 1 12.17287 14.13213 0 12.17287 14.13213 1 11.72368 14.88397 0 11.89571 11.74916 1 11.89571 11.74916 0 12.17287 14.13213 1 12.3226 13.20188 0 12.3226 13.20188 1 12.17287 14.13213 0 12.21588 12.42455 1 12.21588 12.42455 0</float_array>
                    <technique_common>
                        <accessor count="36" source="#ID64" stride="3">
                            <param name="X" type="float" />
                            <param name="Y" type="float" />
                            <param name="Z" type="float" />
                        </accessor>
                    </technique_common>
                </source>
                <source id="ID62">
                    <float_array id="ID65" count="108">1 0 -0 1 0 -0 1 0 -0 1 0 -0 -0.0234548 -0.9997249 0 0 -1 0 -0.0234548 -0.9997249 0 0 -1 0 0 1 0 -0.01968034 0.9998063 0 0 1 0 -0.01968034 0.9998063 0 -0.1888725 -0.9820016 0 -0.1888725 -0.9820016 0 -0.1162027 0.9932255 0 -0.1162027 0.9932255 0 -0.481107 -0.8766619 0 -0.481107 -0.8766619 0 -0.3450061 0.9386004 0 -0.3450061 0.9386004 0 -0.6215504 -0.7833742 0 -0.6215504 -0.7833742 0 -0.6163412 0.7874792 0 -0.6163412 0.7874792 0 -0.8584543 -0.5128901 0 -0.8584543 -0.5128901 0 -0.8584543 -0.5128901 0 -0.8584543 -0.5128901 0 -0.8264011 0.5630819 0 -0.8264011 0.5630819 0 -0.9872925 -0.1589135 0 -0.999933 -0.01157377 0 -0.999933 -0.01157377 0 -0.9872925 -0.1589135 0 -0.9583695 0.2855307 0 -0.9583695 0.2855307 0</float_array>
                    <technique_common>
                        <accessor count="36" source="#ID65" stride="3">
                            <param name="X" type="float" />
                            <param name="Y" type="float" />
                            <param name="Z" type="float" />
                        </accessor>
                    </technique_common>
                </source>
                <vertices id="ID63">
                    <input semantic="POSITION" source="#ID61" />
                    <input semantic="NORMAL" source="#ID62" />
                </vertices>
                <triangles count="28" material="Material2">
                    <input offset="0" semantic="VERTEX" source="#ID63" />
                    <p>0 1 2 1 0 3 4 5 6 5 4 7 8 9 10 9 8 11 12 6 13 6 12 4 11 14 9 14 11 15 16 13 17 13 16 12 15 18 14 18 15 19 20 17 21 17 20 16 19 22 18 22 19 23 24 25 26 25 24 27 28 22 23 22 28 29 30 31 32 31 30 33 34 29 28 29 34 35 32 35 34 35 32 31</p>
                </triangles>
            </mesh>
        </geometry>
        <geometry id="ID66">
            <mesh>
                <source id="ID67">
                    <float_array id="ID70" count="36">26.63313 14.64185 1 29.20724 7.709591 0 29.20724 7.709591 1 26.63313 14.64185 0 24.10999 7.709591 1 29.20724 7.709591 0 24.10999 7.709591 0 29.20724 7.709591 1 26.63313 14.64185 0 24.10999 7.709591 1 24.10999 7.709591 0 26.63313 14.64185 1</float_array>
                    <technique_common>
                        <accessor count="12" source="#ID70" stride="3">
                            <param name="X" type="float" />
                            <param name="Y" type="float" />
                            <param name="Z" type="float" />
                        </accessor>
                    </technique_common>
                </source>
                <source id="ID68">
                    <float_array id="ID71" count="36">-0.9374574 -0.3481 0 -0.9374574 -0.3481 0 -0.9374574 -0.3481 0 -0.9374574 -0.3481 0 0 1 0 0 1 0 0 1 0 0 1 0 0.9396925 -0.3420204 0 0.9396925 -0.3420204 0 0.9396925 -0.3420204 0 0.9396925 -0.3420204 0</float_array>
                    <technique_common>
                        <accessor count="12" source="#ID71" stride="3">
                            <param name="X" type="float" />
                            <param name="Y" type="float" />
                            <param name="Z" type="float" />
                        </accessor>
                    </technique_common>
                </source>
                <vertices id="ID69">
                    <input semantic="POSITION" source="#ID67" />
                    <input semantic="NORMAL" source="#ID68" />
                </vertices>
                <triangles count="6" material="Material2">
                    <input offset="0" semantic="VERTEX" source="#ID69" />
                    <p>0 1 2 1 0 3 4 5 6 5 4 7 8 9 10 9 8 11</p>
                </triangles>
            </mesh>
        </geometry>
        <geometry id="ID72">
            <mesh>
                <source id="ID73">
                    <float_array id="ID76" count="192">57.21663 9.672032 0 57.30822 8.181485 1 57.30822 8.181485 0 57.21663 9.672032 1 57.30584 11.18249 0 57.30584 11.18249 1 57.583 6.882881 1 57.583 6.882881 0 57.57344 12.48986 0 57.57344 12.48986 1 58.04095 5.77622 1 58.04095 5.77622 0 58.01945 13.59413 0 58.01945 13.59413 1 58.68209 4.861502 1 58.68209 4.861502 0 58.64386 14.49531 0 58.64386 14.49531 1 59.4642 4.1451 0 59.4642 4.1451 1 59.41403 15.19498 1 59.41403 15.19498 0 60.34507 3.633384 0 60.34507 3.633384 1 60.29728 15.69475 1 60.29728 15.69475 0 61.3247 3.326354 0 61.3247 3.326354 1 61.29364 15.99461 1 61.29364 15.99461 0 62.40309 3.224011 0 62.40309 3.224011 1 62.40309 16.09457 1 62.40309 16.09457 0 63.48028 3.325558 0 63.48028 3.325558 1 63.51134 15.99581 1 63.51134 15.99581 0 64.45632 3.630198 0 64.45632 3.630198 1 64.50411 15.69953 1 64.50411 15.69953 0 65.33122 4.137932 0 65.33122 4.137932 1 65.38139 15.20573 1 65.38139 15.20573 0 66.10496 4.848759 0 66.10496 4.848759 1 66.14319 14.51442 1 66.14319 14.51442 0 66.73774 5.76268 1 66.73774 5.76268 0 66.75924 13.6224 0 66.75924 13.6224 1 67.18972 6.879695 1 67.18972 6.879695 0 67.19928 12.52649 0 67.19928 12.52649 1 67.46091 8.199803 1 67.46091 8.199803 0 67.4633 11.22669 0 67.4633 11.22669 1 67.55131 9.723005 1 67.55131 9.723005 0</float_array>
                    <technique_common>
                        <accessor count="64" source="#ID76" stride="3">
                            <param name="X" type="float" />
                            <param name="Y" type="float" />
                            <param name="Z" type="float" />
                        </accessor>
                    </technique_common>
                </source>
                <source id="ID74">
                    <float_array id="ID77" count="192">0.9999993 0.001191613 0 0.9909089 0.1345343 0 0.9909089 0.1345343 0 0.9999993 0.001191613 0 0.9915041 -0.1300751 0 0.9915041 -0.1300751 0 0.9552068 0.2959393 0 0.9552068 0.2959393 0 0.9574162 -0.2887114 0 0.9574162 -0.2887114 0 0.876694 0.4810485 0 0.876694 0.4810485 0 0.8800175 -0.4749413 0 0.8800175 -0.4749413 0 0.7516219 0.6595942 0 0.7516219 0.6595942 0 0.7520526 -0.6591031 0 0.7520526 -0.6591031 0 0.5923125 0.8057083 0 0.5923125 0.8057083 0 0.5860668 -0.8102627 0 0.5860668 -0.8102627 0 0.4031861 0.915118 0 0.4031861 0.915118 0 0.3927539 -0.9196436 0 0.3927539 -0.9196436 0 0.1978551 0.9802313 0 0.1978551 0.9802313 0 0.1899328 -0.9817971 0 0.1899328 -0.9817971 0 0.0003142473 1 0 0.0003142473 1 0 0.0004865214 -0.9999999 0 0.0004865214 -0.9999999 0 -0.1969679 0.9804099 0 -0.1969679 0.9804099 0 -0.1883181 -0.9821081 0 -0.1883181 -0.9821081 0 -0.402445 0.9154442 0 -0.402445 0.9154442 0 -0.3906571 -0.9205363 0 -0.3906571 -0.9205363 0 -0.5927255 0.8054045 0 -0.5927255 0.8054045 0 -0.5849348 -0.8110803 0 -0.5849348 -0.8110803 0 -0.7539957 0.6568793 0 -0.7539957 0.6568793 0 -0.7523749 -0.6587352 0 -0.7523749 -0.6587352 0 -0.8799485 0.4750692 0 -0.8799485 0.4750692 0 -0.8808631 -0.473371 0 -0.8808631 -0.473371 0 -0.9572218 0.2893552 0 -0.9572218 0.2893552 0 -0.9579259 -0.2870156 0 -0.9579259 -0.2870156 0 -0.9914391 0.1305701 0 -0.9914391 0.1305701 0 -0.9916357 -0.1290686 0 -0.9916357 -0.1290686 0 -0.9999999 0.0004080141 0 -0.9999999 0.0004080141 0</float_array>
                    <technique_common>
                        <accessor count="64" source="#ID77" stride="3">
                            <param name="X" type="float" />
                            <param name="Y" type="float" />
                            <param name="Z" type="float" />
                        </accessor>
                    </technique_common>
                </source>
                <vertices id="ID75">
                    <input semantic="POSITION" source="#ID73" />
                    <input semantic="NORMAL" source="#ID74" />
                </vertices>
                <triangles count="64" material="Material2">
                    <input offset="0" semantic="VERTEX" source="#ID75" />
                    <p>0 1 2 1 0 3 4 3 0 3 4 5 2 6 7 6 2 1 8 5 4 5 8 9 7 10 11 10 7 6 12 9 8 9 12 13 11 14 15 14 11 10 16 13 12 13 16 17 14 18 15 18 14 19 20 16 21 16 20 17 19 22 18 22 19 23 24 21 25 21 24 20 23 26 22 26 23 27 28 25 29 25 28 24 27 30 26 30 27 31 32 29 33 29 32 28 31 34 30 34 31 35 36 33 37 33 36 32 35 38 34 38 35 39 40 37 41 37 40 36 39 42 38 42 39 43 44 41 45 41 44 40 43 46 42 46 43 47 48 45 49 45 48 44 50 46 47 46 50 51 48 52 53 52 48 49 54 51 50 51 54 55 53 56 57 56 53 52 58 55 54 55 58 59 57 60 61 60 57 56 62 59 58 59 62 63 61 63 62 63 61 60</p>
                </triangles>
            </mesh>
        </geometry>
        <geometry id="ID78">
            <mesh>
                <source id="ID79">
                    <float_array id="ID82" count="36">103.4614 14.64185 1 106.0355 7.709591 0 106.0355 7.709591 1 103.4614 14.64185 0 100.9383 7.709591 1 106.0355 7.709591 0 100.9383 7.709591 0 106.0355 7.709591 1 103.4614 14.64185 0 100.9383 7.709591 1 100.9383 7.709591 0 103.4614 14.64185 1</float_array>
                    <technique_common>
                        <accessor count="12" source="#ID82" stride="3">
                            <param name="X" type="float" />
                            <param name="Y" type="float" />
                            <param name="Z" type="float" />
                        </accessor>
                    </technique_common>
                </source>
                <source id="ID80">
                    <float_array id="ID83" count="36">-0.9374574 -0.3481 0 -0.9374574 -0.3481 0 -0.9374574 -0.3481 0 -0.9374574 -0.3481 0 0 1 0 0 1 0 0 1 0 0 1 0 0.9396925 -0.3420204 0 0.9396925 -0.3420204 0 0.9396925 -0.3420204 0 0.9396925 -0.3420204 0</float_array>
                    <technique_common>
                        <accessor count="12" source="#ID83" stride="3">
                            <param name="X" type="float" />
                            <param name="Y" type="float" />
                            <param name="Z" type="float" />
                        </accessor>
                    </technique_common>
                </source>
                <vertices id="ID81">
                    <input semantic="POSITION" source="#ID79" />
                    <input semantic="NORMAL" source="#ID80" />
                </vertices>
                <triangles count="6" material="Material2">
                    <input offset="0" semantic="VERTEX" source="#ID81" />
                    <p>0 1 2 1 0 3 4 5 6 5 4 7 8 9 10 9 8 11</p>
                </triangles>
            </mesh>
        </geometry>
    </library_geometries>
    <library_materials>
        <material id="ID6" name="material">
            <instance_effect url="#ID5" />
        </material>
    </library_materials>
    <library_effects>
        <effect id="ID5">
            <profile_COMMON>
                <technique sid="COMMON">
                    <lambert>
                        <diffuse>
                            <color>1 1 1 1</color>
                        </diffuse>
                    </lambert>
                </technique>
            </profile_COMMON>
        </effect>
    </library_effects>
    <scene>
        <instance_visual_scene url="#ID1" />
    </scene>
</COLLADA>
