<?xml version="1.0" encoding="UTF-8" standalone="no"?>
<!-- Created with Inkscape (http://www.inkscape.org/) -->

<svg
   xmlns:dc="http://purl.org/dc/elements/1.1/"
   xmlns:cc="http://creativecommons.org/ns#"
   xmlns:rdf="http://www.w3.org/1999/02/22-rdf-syntax-ns#"
   xmlns:svg="http://www.w3.org/2000/svg"
   xmlns="http://www.w3.org/2000/svg"
   xmlns:sodipodi="http://sodipodi.sourceforge.net/DTD/sodipodi-0.dtd"
   xmlns:inkscape="http://www.inkscape.org/namespaces/inkscape"
   width="744.09448819"
   height="1052.3622047"
   id="svg2"
   version="1.1"
   inkscape:version="0.48.1 "
   sodipodi:docname="New document 1">
  <defs
     id="defs4" />
  <sodipodi:namedview
     id="base"
     pagecolor="#ffffff"
     bordercolor="#666666"
     borderopacity="1.0"
     inkscape:pageopacity="0.0"
     inkscape:pageshadow="2"
     inkscape:zoom="0.65626792"
     inkscape:cx="404.41021"
     inkscape:cy="774.16367"
     inkscape:document-units="px"
     inkscape:current-layer="layer1"
     showgrid="false"
     inkscape:window-width="936"
     inkscape:window-height="773"
     inkscape:window-x="450"
     inkscape:window-y="125"
     inkscape:window-maximized="1" />
  <metadata
     id="metadata7">
    <rdf:RDF>
      <cc:Work
         rdf:about="">
        <dc:format>image/svg+xml</dc:format>
        <dc:type
           rdf:resource="http://purl.org/dc/dcmitype/StillImage" />
        <dc:title></dc:title>
      </cc:Work>
    </rdf:RDF>
  </metadata>
  <g
     inkscape:label="Layer 1"
     inkscape:groupmode="layer"
     id="layer1">
    <g
       id="g2996"
       transform="translate(-27.14286,-88.57143)">
      <path
         style="fill:#a0a0a0"
         d="m 158.14286,564.79874 c -7.40312,-2.11514 -9.29413,-3.13925 -14.59222,-7.90268 -8.75005,-7.86706 -13.67349,-19.03707 -15.93497,-36.1524 -4.76532,-36.0648 2.20056,-92.91476 20.52691,-167.52433 16.60429,-67.59875 38.19631,-115.5576 63.03074,-140 12.35921,-12.1641 20.80552,-16.3786 35.9684,-17.94734 16.06113,-1.66166 25.69962,0.54718 53.00114,12.14621 25.1526,10.68606 47.72178,14.77509 81.64405,14.79206 36.3041,0.0181 55.35966,-3.47045 84.85595,-15.53503 21.92901,-8.9694 26.60515,-10.33493 37.88951,-11.06448 23.10171,-1.49356 39.4208,6.01161 55.67592,25.60543 11.15189,13.44242 20.42067,29.35318 29.42052,50.50315 8.04474,18.90543 11.76978,29.55434 20.10742,57.48179 9.99531,33.47991 23.83735,101.80829 26.52389,130.92979 1.96954,21.34934 2.19662,45.84964 0.54828,59.15562 -1.7449,14.08542 -3.97031,20.99988 -9.52465,29.59351 -4.56111,7.05693 -8.83676,10.82967 -16.01024,14.12708 -4.88073,2.2435 -6.24578,2.41993 -15,1.9387 -18.0995,-0.99495 -34.24078,-8.74789 -55.63065,-26.72037 -4.4,-3.69703 -19.475,-18.15881 -33.5,-32.13729 -26.77944,-26.69062 -35.45235,-33.82933 -45.55465,-37.49627 -13.17978,-4.78401 -35.35169,-7.326 -68.94535,-7.90455 -46.06382,-0.79331 -78.55171,2.54009 -93.4568,9.58908 -10.34157,4.89079 -15.0822,8.94562 -45.5432,38.95471 -28.21275,27.7942 -38.63202,36.82127 -51,44.18549 -9.85574,5.86836 -13.77405,7.57786 -22.0867,9.63609 -11.16815,2.76526 -17.20101,3.23523 -22.4133,1.74603 z M 296.9112,400.8358 c 23.39361,-6.41694 44.39852,-27.86614 49.66639,-50.71692 3.62691,-15.73269 2.87796,-28.96707 -2.41618,-42.69524 -12.04243,-31.22705 -43.40621,-49.66988 -76.09677,-44.74713 -12.12753,1.82624 -19.12223,4.45127 -28.40543,10.66026 -37.06451,24.79026 -43.14592,75.01008 -13.05114,107.77538 8.88914,9.67793 25.43955,18.67081 38.76735,21.06475 6.93109,1.24495 24.89271,0.48112 31.53578,-1.3411 z m 199.65589,-5.39673 c 8.79629,-6.09638 11.04853,-18.27644 5.02646,-27.18293 -7.41138,-10.96124 -23.84861,-11.98004 -32.83331,-2.03506 -10.61907,11.75404 -4.09298,30.06065 11.7186,32.87237 5.52527,0.98254 11.28572,-0.32592 16.08825,-3.65438 z m -49.68486,-47.42856 c 5.35714,-3.54519 8.70315,-10.41481 8.71696,-17.89656 0.0212,-11.49637 -8.6243,-19.9132 -20.41822,-19.87817 -19.9579,0.0593 -27.2026,26.6683 -10.33003,37.94109 4.39805,2.93839 5.33527,3.17241 11.40244,2.84719 5.0924,-0.27297 7.53333,-0.96504 10.62885,-3.01355 z m 97.12953,-0.0857 c 12.73952,-8.43062 11.67758,-28.5393 -1.87578,-35.51949 -3.60169,-1.85492 -5.70959,-2.24381 -10.62454,-1.96015 -13.23802,0.76401 -20.92646,11.80827 -17.82057,25.59879 1.29743,5.7607 5.32419,10.83028 10.84354,13.65169 4.85749,2.48307 14.35393,1.61967 19.47735,-1.77084 z m -49.31628,-48.34405 c 2.17106,-1.12174 5.29563,-3.94822 6.94348,-6.28106 2.62013,-3.70928 2.99659,-5.09855 3,-11.07097 0.003,-5.99672 -0.3673,-7.35858 -3.0405,-11.1694 -8.92027,-12.71637 -28.06298,-12.06752 -35.43206,1.20099 -2.94186,5.29702 -3.2657,13.67633 -0.71846,18.58991 1.8642,3.59599 6.83239,8.04952 11.19492,10.03523 4.09058,1.86192 13.19771,1.20373 18.05262,-1.3047 z"
         id="path3000"
         inkscape:connector-curvature="0"
         sodipodi:nodetypes="sssssssssssssssssssssssssssssssssssssssssssssssssssssscsssss" />
      <path
         style="fill:#040404"
         d="m 158.64286,563.30077 c -10.71906,-2.79612 -17.89366,-9.33417 -23.4879,-21.40399 -9.71747,-20.96583 -11.16052,-45.39489 -5.12013,-86.67745 17.04175,-116.47059 45.84667,-202.41322 79.80883,-238.1184 12.76249,-13.4175 23.26079,-18.84613 39.41839,-20.38312 13.83857,-1.3164 22.23475,0.80706 53.21107,13.4575 25.14906,10.27063 44.40648,13.5443 79.66974,13.54346 36.85667,-8.7e-4 55.61917,-3.36894 84.32672,-15.13754 22.90963,-9.39176 26.53252,-10.41211 39.27662,-11.06184 20.489,-1.04459 32.10828,3.47142 47.0577,18.28971 33.37812,33.08534 63.22003,118.7353 79.75625,228.91023 1.40334,9.35 3.11616,20.375 3.80626,24.5 0.72526,4.33518 1.22162,15.51755 1.17627,26.5 -0.0701,16.97975 -0.35835,20.1397 -2.71078,29.71866 -4.56074,18.57104 -12.34109,30.4944 -23.3802,35.8301 -9.8362,4.75427 -25.79673,2.49791 -42.80884,-6.05194 -15.63716,-7.85884 -25.68939,-16.18072 -58,-48.0161 -31.3724,-30.91098 -38.95554,-37.0984 -50.03633,-40.82689 -27.92726,-9.39704 -117.4239,-10.29012 -151.89227,-1.51572 -14.69167,3.73997 -20.06348,7.87076 -55.0714,42.3486 -30.34926,29.88971 -42.87925,40.37178 -57.05659,47.73116 -12.48258,6.47964 -30.19694,10.38428 -37.94341,8.36357 z m 130.5,-159.14645 c 32.31101,-5.21896 56.85556,-30.87689 60.92146,-63.68499 4.23603,-34.1808 -17.33576,-66.97746 -50.92146,-77.41843 -6.3895,-1.98634 -9.57292,-2.32555 -21.5,-2.29091 -12.65404,0.0367 -14.76912,0.30742 -22,2.81536 -30.54416,10.59388 -49.5624,36.85163 -49.71818,68.64398 -0.0986,20.11609 6.75413,36.60805 21.19141,51 9.41541,9.38585 16.33141,13.9153 26.81294,17.56041 12.15526,4.22719 23.31453,5.29659 35.21383,3.37458 z m 204.5,-4.83484 c 7.44826,-3.45586 13.5,-12.35857 13.5,-19.85986 0,-4.31607 -2.16565,-9.98557 -5.23816,-13.71305 -9.26829,-11.24404 -27.86018,-10.57754 -36.20661,1.29798 -3.96846,5.64643 -4.72459,14.74283 -1.779,21.40181 4.69561,10.61521 19.00111,15.84824 29.72377,10.87312 z m -51.43465,-47.10175 c 5.0182,-1.39404 11.39511,-7.1927 13.38836,-12.17431 6.10113,-15.24823 -4.29194,-31.82409 -19.95371,-31.82409 -12.08948,0 -21.78571,10.01414 -21.78571,22.5 0,15.28981 13.59383,25.59792 28.35106,21.4984 z m 99.49046,-0.88453 c 7.37549,-3.35005 13.44419,-12.65514 13.44419,-20.61387 0,-8.36916 -6.67517,-18.06482 -14.49248,-21.05028 -18.71088,-7.14575 -36.08628,12.95574 -26.98527,31.21908 2.85738,5.73401 4.32182,7.23655 9.96294,10.22207 4.99081,2.64135 12.54123,2.73452 18.07062,0.223 z m -50.77632,-48.28856 c 8.59169,-2.16342 16.24333,-12.31757 16.21493,-21.51813 -0.0221,-7.17085 -6.24875,-16.14159 -13.49442,-19.44152 -4.7454,-2.16122 -13.26744,-2.40908 -17.78212,-0.5172 -8.61366,3.60958 -13.71788,11.16141 -13.71788,20.29598 0,9.98975 5.34349,17.57268 14.74797,20.92881 4.71055,1.68103 8.11378,1.74216 14.03152,0.25206 z"
         id="path2998"
         inkscape:connector-curvature="0"
         sodipodi:nodetypes="sssssssssssssssssssssssssssssssssssssssssssssssssssssss" />
    </g>
    <rect
       style="fill:#ffffff;fill-opacity:1;stroke:#cfffff;stroke-width:0;stroke-linecap:square;stroke-linejoin:miter;stroke-miterlimit:4;stroke-opacity:1;stroke-dasharray:none"
       id="rect3002"
       width="29.491385"
       height="117.45707"
       x="-114.81163"
       y="25.732599" />
    <path
       style="fill:#000000;fill-opacity:1;stroke:#cfffff;stroke-width:0;stroke-linecap:square;stroke-linejoin:miter;stroke-miterlimit:4;stroke-opacity:1;stroke-dasharray:none"
       d="m 234.76729,181.92266 0,46.71875 -46.71875,0 0,30.71875 46.71875,0 0,46.71875 30.71875,0 0,-46.71875 46.71875,0 0,-30.71875 -46.71875,0 0,-46.71875 -30.71875,0 z"
       id="rect3006"
       inkscape:connector-curvature="0" />
    <path
       sodipodi:type="arc"
       style="fill:#ffcc00;fill-opacity:1;stroke:#cfffff;stroke-width:0;stroke-linecap:square;stroke-linejoin:miter;stroke-miterlimit:4;stroke-opacity:1;stroke-dasharray:none"
       id="path3074"
       sodipodi:cx="460.61697"
       sodipodi:cy="193.08255"
       sodipodi:rx="17.239466"
       sodipodi:ry="16.700733"
       d="m 477.85644,193.08255 a 17.239466,16.700733 0 1 1 -34.47893,0 17.239466,16.700733 0 1 1 34.47893,0 z"
       transform="translate(-3.2323999,0)" />
    <flowRoot
       xml:space="preserve"
       id="flowRoot3076"
       style="font-size:40px;font-style:normal;font-weight:normal;line-height:125%;letter-spacing:0px;word-spacing:0px;fill:#000000;fill-opacity:1;stroke:none;font-family:Sans"
       transform="translate(-159.92986,19.394399)"><flowRegion
         id="flowRegion3078"><rect
           id="rect3080"
           width="76.50013"
           height="63.031799"
           x="603.92004"
           y="155.90994" /></flowRegion><flowPara
         id="flowPara3082"
         style="font-weight:bold;-inkscape-font-specification:Sans Bold">Y</flowPara></flowRoot>    <path
       sodipodi:type="arc"
       style="fill:#0066ff;fill-opacity:1;stroke:#cfffff;stroke-width:0;stroke-linecap:square;stroke-linejoin:miter;stroke-miterlimit:4;stroke-opacity:1;stroke-dasharray:none"
       id="path3074-3"
       sodipodi:cx="460.61697"
       sodipodi:cy="193.08255"
       sodipodi:rx="17.239466"
       sodipodi:ry="16.700733"
       d="m 477.85644,193.08255 a 17.239466,16.700733 0 1 1 -34.47893,0 17.239466,16.700733 0 1 1 34.47893,0 z"
       transform="translate(-51.911065,49.408526)" />
    <flowRoot
       xml:space="preserve"
       id="flowRoot3076-0"
       style="font-size:40px;font-style:normal;font-weight:normal;line-height:125%;letter-spacing:0px;word-spacing:0px;fill:#000000;fill-opacity:1;stroke:none;font-family:Sans"
       transform="translate(-208.60853,66.802926)"><flowRegion
         id="flowRegion3078-5"><rect
           id="rect3080-3"
           width="76.50013"
           height="63.031799"
           x="603.92004"
           y="155.90994" /></flowRegion><flowPara
         id="flowPara3082-6"
         style="font-weight:bold;-inkscape-font-specification:Sans Bold">X</flowPara></flowRoot>    <path
       sodipodi:type="arc"
       style="fill:#00aa00;fill-opacity:1;stroke:#cfffff;stroke-width:0;stroke-linecap:square;stroke-linejoin:miter;stroke-miterlimit:4;stroke-opacity:1;stroke-dasharray:none"
       id="path3074-3-8"
       sodipodi:cx="460.61697"
       sodipodi:cy="193.08255"
       sodipodi:rx="17.239466"
       sodipodi:ry="16.700733"
       d="m 477.85644,193.08255 a 17.239466,16.700733 0 1 1 -34.47893,0 17.239466,16.700733 0 1 1 34.47893,0 z"
       transform="translate(-4.1187279,96.97199)" />
    <flowRoot
       xml:space="preserve"
       id="flowRoot3076-0-5"
       style="font-size:40px;font-style:normal;font-weight:normal;line-height:125%;letter-spacing:0px;word-spacing:0px;fill:#000000;fill-opacity:1;stroke:none;font-family:Sans"
       transform="translate(-160.8162,114.36639)"><flowRegion
         id="flowRegion3078-5-7"><rect
           id="rect3080-3-8"
           width="76.50013"
           height="63.031799"
           x="603.92004"
           y="155.90994" /></flowRegion><flowPara
         id="flowPara3082-6-9"
         style="font-weight:bold;-inkscape-font-specification:Sans Bold">A</flowPara></flowRoot>    <path
       sodipodi:type="arc"
       style="fill:#ff0000;fill-opacity:1;stroke:#cfffff;stroke-width:0;stroke-linecap:square;stroke-linejoin:miter;stroke-miterlimit:4;stroke-opacity:1;stroke-dasharray:none"
       id="path3074-3-8-2"
       sodipodi:cx="460.61697"
       sodipodi:cy="193.08255"
       sodipodi:rx="17.239466"
       sodipodi:ry="16.700733"
       d="m 477.85644,193.08255 a 17.239466,16.700733 0 1 1 -34.47893,0 17.239466,16.700733 0 1 1 34.47893,0 z"
       transform="translate(45.444743,49.563459)" />
    <flowRoot
       xml:space="preserve"
       id="flowRoot3076-0-5-5"
       style="font-size:40px;font-style:normal;font-weight:normal;line-height:125%;letter-spacing:0px;word-spacing:0px;fill:#000000;fill-opacity:1;stroke:none;font-family:Sans"
       transform="translate(-111.25273,66.957858)"><flowRegion
         id="flowRegion3078-5-7-1"><rect
           id="rect3080-3-8-0"
           width="76.50013"
           height="63.031799"
           x="603.92004"
           y="155.90994" /></flowRegion><flowPara
         id="flowPara3082-6-9-8"
         style="font-weight:bold;-inkscape-font-specification:Sans Bold">B</flowPara></flowRoot>  </g>
</svg>
